,AK,AKGDH,ALATA,ATPASE,CITS,CK,CS,EP,G6PDH,GLDH,GLNS,GLNT,GLUT,GROWTH,HK,LDH,LEAK,MDH,ME,NADPHOX,PDH,PFK,PGI,PGK,PK,PPRIBP,RESP,SCOAS,SDH,TK
0,0.0,0.01,0.0,0.0666,0.01,0.0,0.01,0.0,0.0,0.0,0.0,0.0,0.0,0.0,0.0,-0.01,0.0,0.01,0.0,0.0,0.01,0.0,0.0,0.0,0.0,0.0,0.0283,0.01,0.01,0.0
1,0.0,0.01,0.0,0.01,0.01,0.0,0.01,0.0,0.0,0.0,0.0,0.0,0.0,0.0,0.0,-0.01,0.0283,0.01,0.0,0.0,0.01,0.0,0.0,0.0,0.0,0.0,0.0,0.01,0.01,0.0
2,0.0,0.0,0.0,0.01,0.0,0.01,0.0,0.0,0.0,0.0,0.01,0.01,0.01,0.0,0.0,0.0,0.0,0.0,0.0,0.0,0.0,0.0,0.0,0.0,0.0,0.0,0.0,0.0,0.0,0.0
3,0.0,0.01,0.01,0.01,0.0,0.01,0.0,0.0,0.0,0.0,0.01,0.01,0.0,0.0,0.0,0.0,0.0133,0.0,0.01,0.0,0.0,0.0,0.0,0.0,0.0,0.0,0.0,0.01,0.01,0.0
4,0.0,0.01,0.01,0.0366,0.0,0.01,0.0,0.0,0.0,0.0,0.01,0.01,0.0,0.0,0.0,0.0,0.0,0.0,0.01,0.0,0.0,0.0,0.0,0.0,0.0,0.0,0.0133,0.01,0.01,0.0
5,0.0378,0.18894,0.0,1.0883304,0.11367,0.25041,0.13227,0.0,0.02292,0.07527,0.0,0.076,0.0,0.01,0.02321,0.0,0.0,0.13227,0.13227,0.04584,0.13227,0.0,0.0,0.0,0.0,0.0378,0.4496952,0.18894,0.18894,0.0
6,0.0378,0.0384,0.0,0.386814,0.0384,0.25041,0.057,0.0,0.02292,0.0,0.0,0.076,0.07527,0.01,0.02321,0.0,0.0,0.057,0.057,0.04584,0.057,0.0,0.0,0.0,0.0,0.0378,0.136572,0.0384,0.0384,0.0
7,0.0,0.02,0.0,0.02,0.01,0.01,0.01,0.0,0.0,0.01,0.01,0.01,0.0,0.0,0.0,0.0,0.0416,0.01,0.01,0.0,0.01,0.0,0.0,0.0,0.0,0.0,0.0,0.02,0.02,0.0
8,0.0,0.02,0.0,0.1032,0.01,0.01,0.01,0.0,0.0,0.01,0.01,0.01,0.0,0.0,0.0,0.0,0.0,0.01,0.01,0.0,0.01,0.0,0.0,0.0,0.0,0.0,0.0416,0.02,0.02,0.0
9,0.5178082192,0.5260273973,0.0,0.5260273973,0.5260273973,2.3991780822,0.7808219178,0.0,0.3139726027,0.0,-1.0310958904,0.01,0.0,0.1369863014,0.3179452055,0.0,1.8708493151,0.7808219178,0.7808219178,0.6279452055,0.7808219178,0.0,0.0,0.0,0.0,0.5178082192,0.0,0.5260273973,0.5260273973,0.0
10,0.0378,0.0384,0.0,0.11367,0.0384,0.25041,0.057,0.0,0.02292,0.0,0.0,0.076,0.07527,0.01,0.02321,0.0,0.136572,0.057,0.057,0.04584,0.057,0.0,0.0,0.0,0.0,0.0378,0.0,0.0384,0.0384,0.0
11,0.5178082192,0.5260273973,0.0,4.2677260274,0.5260273973,2.3991780822,0.7808219178,0.0,0.3139726027,0.0,-1.0310958904,0.01,0.0,0.1369863014,0.3179452055,0.0,0.0,0.7808219178,0.7808219178,0.6279452055,0.7808219178,0.0,0.0,0.0,0.0,0.5178082192,1.8708493151,0.5260273973,0.5260273973,0.0
12,0.0378,0.18894,0.0,0.18894,0.11367,0.25041,0.13227,0.0,0.02292,0.07527,0.0,0.076,0.0,0.01,0.02321,0.0,0.4496952,0.13227,0.13227,0.04584,0.13227,0.0,0.0,0.0,0.0,0.0378,0.0,0.18894,0.18894,0.0
13,0.0378,0.11367,0.07527,0.5870322,0.0384,0.25041,0.057,0.0,0.02292,0.0,0.0,0.076,0.0,0.01,0.02321,0.0,0.0,0.057,0.13227,0.04584,0.057,0.0,0.0,0.0,0.0,0.0378,0.2366811,0.11367,0.11367,0.0
14,0.0378,0.11367,0.07527,0.11367,0.0384,0.25041,0.057,0.0,0.02292,0.0,0.0,0.076,0.0,0.01,0.02321,0.0,0.2366811,0.057,0.13227,0.04584,0.057,0.0,0.0,0.0,0.0,0.0378,0.0,0.11367,0.11367,0.0
15,0.0,0.01,0.0,0.0366,0.0,0.01,0.0,0.0,0.0,0.01,0.01,0.01,0.0,0.0,0.0,0.01,0.0,0.0,0.01,0.0,0.0,0.0,0.0,0.0,0.0,0.0,0.0133,0.01,0.01,0.0
16,0.0,0.01,0.0,0.01,0.0,0.01,0.0,0.0,0.0,0.01,0.01,0.01,0.0,0.0,0.0,0.01,0.0133,0.0,0.01,0.0,0.0,0.0,0.0,0.0,0.0,0.0,0.0,0.01,0.01,0.0
17,0.5178082192,0.0,0.0,0.7643835616,0.0,2.3991780822,0.2547945205,0.0,0.3139726027,0.0,-1.0310958904,0.01,0.0,0.1369863014,0.3179452055,0.5260273973,0.0,0.2547945205,0.7808219178,0.6279452055,0.2547945205,0.0,0.0,0.0,0.0,0.5178082192,0.3821917808,0.0,0.0,0.0
18,0.0378,0.0,0.0,0.13107,0.0,0.25041,0.0186,0.0,0.02292,0.0,0.0,0.076,0.07527,0.01,0.02321,0.0384,0.0,0.0186,0.057,0.04584,0.0186,0.0,0.0,0.0,0.0,0.0378,0.0279,0.0,0.0,0.0
19,0.5178082192,0.0,0.0,0.0,0.0,2.3991780822,0.2547945205,0.0,0.3139726027,0.0,-1.0310958904,0.01,0.0,0.1369863014,0.3179452055,0.5260273973,0.3821917808,0.2547945205,0.7808219178,0.6279452055,0.2547945205,0.0,0.0,0.0,0.0,0.5178082192,0.0,0.0,0.0,0.0
20,0.0378,0.0,0.0,0.07527,0.0,0.25041,0.0186,0.0,0.02292,0.0,0.0,0.076,0.07527,0.01,0.02321,0.0384,0.0279,0.0186,0.057,0.04584,0.0186,0.0,0.0,0.0,0.0,0.0378,0.0,0.0,0.0,0.0
21,0.0378,0.07527,0.07527,0.07527,0.0,0.25041,0.0186,0.0,0.02292,0.0,0.0,0.076,0.0,0.01,0.02321,0.0384,0.1280091,0.0186,0.13227,0.04584,0.0186,0.0,0.0,0.0,0.0,0.0378,0.0,0.07527,0.07527,0.0
22,0.0378,0.07527,0.0,0.07527,0.0,0.25041,0.0186,0.0,0.02292,0.07527,0.0,0.076,0.0,0.01,0.02321,0.11367,0.1280091,0.0186,0.13227,0.04584,0.0186,0.0,0.0,0.0,0.0,0.0378,0.0,0.07527,0.07527,0.0
23,0.0378,0.07527,0.07527,0.3312882,0.0,0.25041,0.0186,0.0,0.02292,0.0,0.0,0.076,0.0,0.01,0.02321,0.0384,0.0,0.0186,0.13227,0.04584,0.0186,0.0,0.0,0.0,0.0,0.0378,0.1280091,0.07527,0.07527,0.0
24,0.0378,0.07527,0.0,0.3312882,0.0,0.25041,0.0186,0.0,0.02292,0.07527,0.0,0.076,0.0,0.01,0.02321,0.11367,0.0,0.0186,0.13227,0.04584,0.0186,0.0,0.0,0.0,0.0,0.0378,0.1280091,0.07527,0.07527,0.0
