M_ACCOA;C00024;2.1e-08;2.5900000000000003e-07
M_ADP;C00008;1.0044e-07;1.23876e-06
M_AKG;C00026;1.5e-08;1.85e-07
M_AMP;C00020;4.63665e-08;5.718535e-07
M_ATP;C00002;1.05e-06;1.295e-05
M_CIT;C00158;1.5e-07;1.85e-06
M_CO2;C00011;0.1875;2.3125
M_COA;C00010;3e-09;3.7e-08
M_Cr;C00791;2.5425;31.3575
M_EALA;C00041;0.16560537844988402;2.042466334215236
M_EASP;C00049;0.17280853864661547;2.1313053099749246
M_EGLC;C00140;2.38;29.353333333333335
M_EGLN;C00064;0.241;2.9723333333333337
M_EGLU;C00025;0.1319;1.6267666666666667
M_ELAC;C00186;2.2600000000000002;27.87333333333334
M_ENH4;C01342;0.2620553783638362;3.2320163331539797
M_F6P;C00085;3.3e-08;4.0700000000000003e-07
M_G6P;C00092;2.4e-08;2.96e-07
M_GAP;C00661;6e-08;7.4e-07
M_GLN;C00064;1.35e-06;1.665e-05
M_GLU;C00025;3.3e-05;0.000407
M_MAL;C00149;2.25e-07;2.775e-06
M_NAD;C00003;1.0317e-07;1.27243e-06
M_NADH;C00004;1.2735e-07;1.5706500000000002e-06
M_NADP;C00006;4.2e-08;5.180000000000001e-07
M_NADPH;C00004;2.25e-08;2.775e-07
M_O2;C00007;0.01635;0.20165
M_OAA;C00036;1.5e-07;1.85e-06
M_PEP;C00074;1.32e-07;1.6280000000000001e-06
M_PYR;C00022;3e-07;3.7e-06
M_Pcr;C02305;0.084;1.0360000000000003
M_Pi;C00009;3e-07;3.7e-06
M_R5P;C00117;8.1e-09;9.99e-08
M_SCOA;C00091;6e-08;7.4e-07
M_SUC;C00042;1.2e-08;1.48e-07
M_X5P;C00231;2.25e-08;2.775e-07
M_X;C00000;0.069;0.8510000000000001
