M_BIOMASS;C00000;0.6150000000000001;11.685
M_ACETATE_ext;C00033;1e-06;1
M_ATP_main;C00002;0.009600000000000001;0.1824
M_CO2_ext;C00011;0.125;2.375
M_ETOH_ext;C00469;1e-06;1
M_FORMATE_ext;C00058;1e-06;1
M_GLU_ext;C19244;0.0038;0.0722
M_LACTATE_ext;C00186;1e-06;1
M_NH3_ext;C01342;1e-06;1
M_OXY_ext;C00007;1e-06;1
M_SUCC_ext;C00042;0.0005700000000000001;0.01083
M_ACETATE;C00033;1e-06;1
M_ACETYL_CoA;C00024;0.0006100000000000001;0.01159
M_ADP;C00008;0.0005600000000000001;0.01064
M_AKG;C00026;0.00044000000000000007;0.00836
M_ATP;C00002;0.009600000000000001;0.1824
M_CITRATE;C00158;0.002;0.038
M_CO2;C00011;0.125;2.375
M_CoASH;C00024;0.0014000000000000002;0.0266
M_DHAP;C00111;0.00037000000000000005;0.00703
M_ERYTH_4_P;C00279;2.7472923083308403e-05;0.0005219855385828596
M_ETOH;C00469;1e-06;1
M_FAD;C00016;1e-06;1
M_FADH;C01352;1e-06;1
M_FORMATE;C00058;1e-06;1
M_FRU_6_P;C00085;0.000346513280848654;0.006583752336124426
M_FRU_BIS_P;C00354;0.015;0.285
M_FUMARATE;C00122;0.0012000000000000001;0.0228
M_GA_3P;C00661;1e-06;1
M_GLU_6_P;C00092;0.0038;0.0722
M_ISOCIT;C00311;8.41704283821574e-06;0.00015992381392609904
M_LACTATE;C00186;1e-06;1
M_MALATE;C00149;0.0017000000000000001;0.0323
M_NAD;C00003;0.0026;0.04939999999999999
M_NADH;C00004;8.300000000000001e-05;0.0015769999999999998
M_NH3;C01342;1e-06;1
M_OXALO;C00036;1e-06;1
M_PEP;C00074;0.00018;0.00342
M_PG;C05986;0.0015;0.028499999999999998
M_PYR;C00022;0.0014492620595257702;0.027535979130989627
M_RIBOSE_5_P;C00117;0.00023745567535335098;0.004511657831713668
M_RIBULOSE_5_P;C00199;0.000679434457551054;0.012909254693470026
M_SED_7_P;C05382;0.00370920714938458;0.07047493583830702
M_SUCC;C00042;0.0005700000000000001;0.01083
M_SUCC_CoA;C00091;0.00023;0.00437
M_XYL_5_P;C00231;0.0006132793004440451;0.011652306708436854
