M_BIOMASS;C00000;0.30750000000000005;11.9925
M_ACETATE_ext;C00033;5e-06;0.000195
M_ATP_main;C00002;0.0048000000000000004;0.1872
M_CO2_ext;C00011;0.0625;2.4375
M_ETOH_ext;C00469;5e-06;0.000195
M_FORMATE_ext;C00058;5e-06;0.000195
M_GLU_ext;C19244;0.0019;0.0741
M_LACTATE_ext;C00186;5e-06;0.000195
M_NH3_ext;C01342;5e-06;0.000195
M_OXY_ext;C00007;5e-06;0.000195
M_SUCC_ext;C00042;0.00028500000000000004;0.011115
M_ACETATE;C00033;5e-06;0.000195
M_ACETYL_CoA;C00024;0.00030500000000000004;0.011895000000000001
M_ADP;C00008;0.00028000000000000003;0.01092
M_AKG;C00026;0.00022000000000000003;0.00858
M_ATP;C00002;0.0048000000000000004;0.1872
M_CITRATE;C00158;0.001;0.039
M_CO2;C00011;0.0625;2.4375
M_CoASH;C00024;0.0007000000000000001;0.0273
M_DHAP;C00111;0.00018500000000000002;0.007215
M_ERYTH_4_P;C00279;1.3736461541654201e-05;0.0005357220001245138
M_ETOH;C00469;5e-06;0.000195
M_FAD;C00016;5e-06;0.000195
M_FADH;C01352;5e-06;0.000195
M_FORMATE;C00058;5e-06;0.000195
M_FRU_6_P;C00085;0.000173256640424327;0.0067570089765487526
M_FRU_BIS_P;C00354;0.0075;0.2925
M_FUMARATE;C00122;0.0006000000000000001;0.0234
M_GA_3P;C00661;5e-06;0.000195
M_GLU_6_P;C00092;0.0019;0.0741
M_ISOCIT;C00311;4.20852141910787e-06;0.00016413233534520692
M_LACTATE;C00186;5e-06;0.000195
M_MALATE;C00149;0.0008500000000000001;0.03315
M_NAD;C00003;0.0013;0.050699999999999995
M_NADH;C00004;4.1500000000000006e-05;0.0016185
M_NH3;C01342;5e-06;0.000195
M_OXALO;C00036;5e-06;0.000195
M_PEP;C00074;9e-05;0.0035099999999999997
M_PG;C05986;0.00075;0.029249999999999998
M_PYR;C00022;0.0007246310297628851;0.028260610160752514
M_RIBOSE_5_P;C00117;0.00011872783767667549;0.004630385669390344
M_RIBULOSE_5_P;C00199;0.000339717228775527;0.013248971922245553
M_SED_7_P;C05382;0.00185460357469229;0.07232953941299931
M_SUCC;C00042;0.00028500000000000004;0.011115
M_SUCC_CoA;C00091;0.000115;0.004484999999999999
M_XYL_5_P;C00231;0.00030663965022202254;0.011958946358658877
