M_BIOMASS;C00000;6.15;6.15
M_ACETATE_ext;C00033;1e-06;1
M_ATP_main;C00002;0.096;0.096
M_CO2_ext;C00011;1.25;1.25
M_ETOH_ext;C00469;1e-06;1
M_FORMATE_ext;C00058;1e-06;1
M_GLU_ext;C19244;0.038;0.038
M_LACTATE_ext;C00186;1e-06;1
M_NH3_ext;C01342;1e-06;1
M_OXY_ext;C00007;1e-06;1
M_SUCC_ext;C00042;0.0057;0.0057
M_ACETATE;C00033;1e-06;1
M_ACETYL_CoA;C00024;0.0061;0.0061
M_ADP;C00008;0.0056;0.0056
M_AKG;C00026;0.0044;0.0044
M_ATP;C00002;0.096;0.096
M_CITRATE;C00158;0.02;0.02
M_CO2;C00011;1.25;1.25
M_CoASH;C00024;0.014;0.014
M_DHAP;C00111;0.0037;0.0037
M_ERYTH_4_P;C00279;0.000274729230833084;0.000274729230833084
M_ETOH;C00469;1e-06;1
M_FAD;C00016;1e-06;1
M_FADH;C01352;1e-06;1
M_FORMATE;C00058;1e-06;1
M_FRU_6_P;C00085;0.00346513280848654;0.00346513280848654
M_FRU_BIS_P;C00354;0.15;0.15
M_FUMARATE;C00122;0.012;0.012
M_GA_3P;C00661;1e-06;1
M_GLU_6_P;C00092;0.038;0.038
M_ISOCIT;C00311;8.41704283821574e-05;8.41704283821574e-05
M_LACTATE;C00186;1e-06;1
M_MALATE;C00149;0.017;0.017
M_NAD;C00003;0.026;0.026
M_NADH;C00004;0.00083;0.00083
M_NH3;C01342;1e-06;1
M_OXALO;C00036;1e-06;1
M_PEP;C00074;0.0018;0.0018
M_PG;C05986;0.015;0.015
M_PYR;C00022;0.0144926205952577;0.0144926205952577
M_RIBOSE_5_P;C00117;0.00237455675353351;0.00237455675353351
M_RIBULOSE_5_P;C00199;0.00679434457551054;0.00679434457551054
M_SED_7_P;C05382;0.0370920714938458;0.0370920714938458
M_SUCC;C00042;0.0057;0.0057
M_SUCC_CoA;C00091;0.0023;0.0023
M_XYL_5_P;C00231;0.00613279300444045;0.00613279300444045
