M_ACCOA;C00024;1.4e-07;1.4e-07
M_ADP;C00008;6.696e-07;6.696e-07
M_AKG;C00026;1e-07;1e-07
M_AMP;C00020;3.0911e-07;3.0911e-07
M_ATP;C00002;7e-06;7e-06
M_CIT;C00158;1e-06;1e-06
M_CO2;C00011;8e-07;8e-07
M_COA;C00010;2e-08;2e-08
M_Cr;C00791;3e-06;3e-06
M_EALA;C00041;0.96;0.96
M_EASP;C00049;2.04;2.04
M_EGLC;C00140;26.0;26.0
M_EGLN;C00064;3.67;3.67
M_EGLU;C00025;0.8;0.8
M_ELAC;C00186;0.75;0.75
M_ENH4;C01342;0.2;0.2
M_F6P;C00085;2.2e-07;2.2e-07
M_G6P;C00092;1.6e-07;1.6e-07
M_GAP;C00661;4e-07;4e-07
M_GLN;C00064;9e-06;9e-06
M_GLU;C00025;0.00022;0.00022
M_MAL;C00149;1.5e-06;1.5e-06
M_NAD;C00003;6.878e-07;6.878e-07
M_NADH;C00004;8.49e-07;8.49e-07
M_NADP;C00006;2.8e-07;2.8e-07
M_NADPH;C00004;1.5e-07;1.5e-07
M_O2;C00007;8e-06;8e-06
M_OAA;C00036;1e-06;1e-06
M_PEP;C00074;8.8e-07;8.8e-07
M_PYR;C00022;2e-06;2e-06
M_Pcr;C02305;1e-07;1e-07
M_Pi;C00009;2e-06;2e-06
M_R5P;C00117;5.4e-08;5.4e-08
M_SCOA;C00091;4e-07;4e-07
M_SUC;C00042;8e-08;8e-08
M_X5P;C00231;1.5e-07;1.5e-07
M_X;C00000;0.46;0.46
