M_ACETATE_ext;C00033;-240.14003227337923
M_ATP_main;C00002;-2270.4800916865584
M_CO2_ext;C00011;-386.0000000000019
M_ETOH_ext;C00469;79.02538175410186
M_FORMATE_ext;C00058;-305.9786807379839
M_GLU_ext;C19244;752.3647249508222
M_LACTATE_ext;C00186;-298.5015020229598
M_NH3_ext;C01342;89.29312212928599
M_OXY_ext;C00007;16.399999999865035
M_SUCC_ext;C00042;-509.92900869798234
M_ACETATE;C00033;-240.14003227337923
M_ACETYL_CoA;C00024;-1781.6444081489221
M_ADP;C00008;-1395.6292467273274
M_AKG;C00026;-622.1619221256469
M_ATP;C00002;-2270.4800916865584
M_CITRATE;C00158;-954.8038650821667
M_CO2;C00011;-386.0000000000019
M_CoASH;C00024;-1781.6444081489221
M_DHAP;C00111;-1082.9130080492132
M_ERYTH_4_P;C00279;-1142.9240538025206
M_ETOH;C00469;79.02538175410186
M_FAD;C00016;-888.7762318703842
M_FADH;C01352;-839.8138242713517
M_FORMATE;C00058;-305.9786807379839
M_FRU_6_P;C00085;-1291.2323086083798
M_FRU_BIS_P;C00354;-2183.1887997271565
M_FUMARATE;C00122;-516.8183247722473
M_GA_3P;C00661;-1077.3005052258698
M_GLU_6_P;C00092;-1293.8755834729386
M_ISOCIT;C00311;-947.9578581141716
M_LACTATE;C00186;-298.5015020229598
M_MALATE;C00149;-672.3277467814481
M_NAD;C00003;-1143.7174255495095
M_NADH;C00004;-1078.084459875474
M_NH3;C01342;89.29312212928599
M_OXALO;C00036;-710.862322029855
M_PEP;C00074;-1189.121616347144
M_PG;C05986;-22.31870992976971
M_PYR;C00022;-339.8307842472289
M_RIBOSE_5_P;C00117;-1214.0678353454375
M_RIBULOSE_5_P;C00199;-1211.9348052546716
M_SED_7_P;C05382;-1355.9291413178034
M_SUCC;C00042;-509.92900869798234
M_SUCC_CoA;C00091;-2057.961788555722
M_XYL_5_P;C00231;-1215.322945313571
