M_ACCOA;C00024;7e-08;2.1e-07
M_ADP;C00008;3.348e-07;1.0044e-06
M_AKG;C00026;5e-08;1.5e-07
M_AMP;C00020;1.54555e-07;4.63665e-07
M_ATP;C00002;3.5e-06;1.05e-05
M_CIT;C00158;5e-07;1.5e-06
M_CO2;C00011;0.625;1.875
M_COA;C00010;1e-08;3.0000000000000004e-08
M_Cr;C00791;8.475;25.424999999999997
M_EALA;C00041;0.55201792816628;1.65605378449884
M_EASP;C00049;0.576028462155385;1.7280853864661547
M_EGLC;C00140;7.933333333333334;23.8
M_EGLN;C00064;0.8033333333333333;2.41
M_EGLU;C00025;0.43966666666666665;1.319
M_ELAC;C00186;7.533333333333334;22.6
M_ENH4;C01342;0.8735179278794539;2.620553783638362
M_F6P;C00085;1.1e-07;3.3e-07
M_G6P;C00092;8e-08;2.4000000000000003e-07
M_GAP;C00661;2e-07;6e-07
M_GLN;C00064;4.5e-06;1.35e-05
M_GLU;C00025;0.00011;0.00033
M_MAL;C00149;7.5e-07;2.25e-06
M_NAD;C00003;3.439e-07;1.0317e-06
M_NADH;C00004;4.245e-07;1.2735000000000002e-06
M_NADP;C00006;1.4e-07;4.2e-07
M_NADPH;C00004;7.5e-08;2.25e-07
M_O2;C00007;0.0545;0.1635
M_OAA;C00036;5e-07;1.5e-06
M_PEP;C00074;4.4e-07;1.32e-06
M_PYR;C00022;1e-06;3e-06
M_Pcr;C02305;0.28;0.8400000000000001
M_Pi;C00009;1e-06;3e-06
M_R5P;C00117;2.7e-08;8.1e-08
M_SCOA;C00091;2e-07;6e-07
M_SUC;C00042;4e-08;1.2000000000000002e-07
M_X5P;C00231;7.5e-08;2.25e-07
M_X;C00000;0.23;0.6900000000000001
