M_BIOMASS;C00000;0.061500000000000006;12.2385
M_ACETATE_ext;C00033;1.0000000000000002e-06;0.000199
M_ATP_main;C00002;0.00096;0.19104000000000002
M_CO2_ext;C00011;0.0125;2.4875
M_ETOH_ext;C00469;1.0000000000000002e-06;0.000199
M_FORMATE_ext;C00058;1.0000000000000002e-06;0.000199
M_GLU_ext;C19244;0.00038;0.07561999999999999
M_LACTATE_ext;C00186;1.0000000000000002e-06;0.000199
M_NH3_ext;C01342;1.0000000000000002e-06;0.000199
M_OXY_ext;C00007;1.0000000000000002e-06;0.000199
M_SUCC_ext;C00042;5.7e-05;0.011343
M_ACETATE;C00033;1.0000000000000002e-06;0.000199
M_ACETYL_CoA;C00024;6.1000000000000005e-05;0.012139
M_ADP;C00008;5.6e-05;0.011144
M_AKG;C00026;4.4000000000000006e-05;0.008756
M_ATP;C00002;0.00096;0.19104000000000002
M_CITRATE;C00158;0.0002;0.0398
M_CO2;C00011;0.0125;2.4875
M_CoASH;C00024;0.00014000000000000001;0.02786
M_DHAP;C00111;3.7000000000000005e-05;0.007363000000000001
M_ERYTH_4_P;C00279;2.74729230833084e-06;0.0005467111693578372
M_ETOH;C00469;1.0000000000000002e-06;0.000199
M_FAD;C00016;1.0000000000000002e-06;0.000199
M_FADH;C01352;1.0000000000000002e-06;0.000199
M_FORMATE;C00058;1.0000000000000002e-06;0.000199
M_FRU_6_P;C00085;3.46513280848654e-05;0.006895614288888214
M_FRU_BIS_P;C00354;0.0015;0.2985
M_FUMARATE;C00122;0.00012;0.023880000000000002
M_GA_3P;C00661;1.0000000000000002e-06;0.000199
M_GLU_6_P;C00092;0.00038;0.07561999999999999
M_ISOCIT;C00311;8.41704283821574e-07;0.00016749915248049323
M_LACTATE;C00186;1.0000000000000002e-06;0.000199
M_MALATE;C00149;0.00017;0.03383
M_NAD;C00003;0.00026;0.051739999999999994
M_NADH;C00004;8.3e-06;0.0016517
M_NH3;C01342;1.0000000000000002e-06;0.000199
M_OXALO;C00036;1.0000000000000002e-06;0.000199
M_PEP;C00074;1.8e-05;0.0035819999999999997
M_PG;C05986;0.00015;0.029849999999999998
M_PYR;C00022;0.00014492620595257702;0.028840314984562822
M_RIBOSE_5_P;C00117;2.3745567535335097e-05;0.0047253679395316845
M_RIBULOSE_5_P;C00199;6.79434457551054e-05;0.013520745705265975
M_SED_7_P;C05382;0.00037092071493845805;0.07381322227275315
M_SUCC;C00042;5.7e-05;0.011343
M_SUCC_CoA;C00091;2.3e-05;0.0045769999999999995
M_XYL_5_P;C00231;6.13279300444045e-05;0.012204258078836495
