clingo version 5.6.2
Reading from clingoLP.py ...
Je passe ICI
Début de la thermo
line[2] -1781.6444081489221
float(line[2].rstrip('
')) -1781.6444081489221
line[2] -1395.6292467273274
float(line[2].rstrip('
')) -1395.6292467273274
line[2] -622.1619221256469
float(line[2].rstrip('
')) -622.1619221256469
line[2] -521.0449892833246
float(line[2].rstrip('
')) -521.0449892833246
line[2] -2270.4800916865584
float(line[2].rstrip('
')) -2270.4800916865584
line[2] -954.8038650821667
float(line[2].rstrip('
')) -954.8038650821667
line[2] -386.0000000000019
float(line[2].rstrip('
')) -386.0000000000019
line[2] -1727.9787463436437
float(line[2].rstrip('
')) -1727.9787463436437
line[2] 277.8738483657367
float(line[2].rstrip('
')) 277.8738483657367
line[2] -66.99962570890881
float(line[2].rstrip('
')) -66.99962570890881
line[2] -440.7037923253865
float(line[2].rstrip('
')) -440.7037923253865
line[2] -244.1034774178704
float(line[2].rstrip('
')) -244.1034774178704
line[2] -93.47316959760116
float(line[2].rstrip('
')) -93.47316959760116
line[2] -349.1667977317067
float(line[2].rstrip('
')) -349.1667977317067
line[2] -298.5015020229598
float(line[2].rstrip('
')) -298.5015020229598
line[2] 89.29312212928599
float(line[2].rstrip('
')) 89.29312212928599
line[2] -1291.2323086083798
float(line[2].rstrip('
')) -1291.2323086083798
line[2] -1293.8755834729386
float(line[2].rstrip('
')) -1293.8755834729386
line[2] -1077.3005052258698
float(line[2].rstrip('
')) -1077.3005052258698
line[2] -93.47316959760116
float(line[2].rstrip('
')) -93.47316959760116
line[2] -349.1667977317067
float(line[2].rstrip('
')) -349.1667977317067
line[2] -672.3277467814481
float(line[2].rstrip('
')) -672.3277467814481
line[2] -1143.7174255495095
float(line[2].rstrip('
')) -1143.7174255495095
line[2] -1078.084459875474
float(line[2].rstrip('
')) -1078.084459875474
line[2] -2030.775868056622
float(line[2].rstrip('
')) -2030.775868056622
line[2] -1078.084459875474
float(line[2].rstrip('
')) -1078.084459875474
line[2] 16.399999999865035
float(line[2].rstrip('
')) 16.399999999865035
line[2] -710.862322029855
float(line[2].rstrip('
')) -710.862322029855
line[2] -1189.121616347144
float(line[2].rstrip('
')) -1189.121616347144
line[2] -339.8307842472289
float(line[2].rstrip('
')) -339.8307842472289
line[2] -734.1247792774911
float(line[2].rstrip('
')) -734.1247792774911
line[2] -1056.0794480718703
float(line[2].rstrip('
')) -1056.0794480718703
line[2] -1214.0678353454375
float(line[2].rstrip('
')) -1214.0678353454375
line[2] -2057.961788555722
float(line[2].rstrip('
')) -2057.961788555722
line[2] -509.92900869798234
float(line[2].rstrip('
')) -509.92900869798234
line[2] -1215.322945313571
float(line[2].rstrip('
')) -1215.322945313571
 I nit de la thermo  
Extension ThermoDGCheckerExtension loaded
Dumping reactions/literals dict...
{'HK': 2, 'PGI': 3, 'PFK': 4, 'PGK': 5, 'PK': 6, 'LDH': 7, 'LDH_rev': 8, 'G6PDH': 9, 'EP': 10, 'TK': 11, 'PDH': 12, 'CS': 13, 'CITS': 14, 'AKGDH': 15, 'SCOAS': 16, 'SDH': 17, 'MDH': 18, 'ME': 19, 'GLNT': 20, 'GLNT_rev': 21, 'GLNS': 22, 'GLNS_rev': 23, 'GLDH': 24, 'ALATA': 25, 'GLUT': 26, 'RESP': 27, 'LEAK': 28, 'ATPASE': 29, 'AK': 30, 'AK_rev': 31, 'CK': 32, 'CK_rev': 33, 'PPRIBP': 34, 'NADPHOX': 35, 'GROWTH': 36}
Solving...
temps d'execution :  4.76837158203125e-07
temps d'execution :  1.1920928955078125e-06
temps d'execution :  1.430511474609375e-06
temps d'execution :  1.9073486328125e-06
temps d'execution :  2.1457672119140625e-06
temps d'execution :  2.6226043701171875e-06
temps d'execution :  3.337860107421875e-06
temps d'execution :  3.814697265625e-06
temps d'execution :  4.291534423828125e-06
temps d'execution :  4.76837158203125e-06
temps d'execution :  5.245208740234375e-06
temps d'execution :  5.7220458984375e-06
temps d'execution :  6.4373016357421875e-06
temps d'execution :  6.9141387939453125e-06
temps d'execution :  7.152557373046875e-06
temps d'execution :  7.62939453125e-06
temps d'execution :  7.867813110351562e-06
temps d'execution :  8.106231689453125e-06
temps d'execution :  8.344650268554688e-06
temps d'execution :  8.58306884765625e-06
temps d'execution :  8.821487426757812e-06
temps d'execution :  9.059906005859375e-06
temps d'execution :  9.298324584960938e-06
temps d'execution :  9.775161743164062e-06
temps d'execution :  1.0251998901367188e-05
temps d'execution :  1.049041748046875e-05
temps d'execution :  1.0967254638671875e-05
temps d'execution :  1.1444091796875e-05
temps d'execution :  1.1920928955078125e-05
temps d'execution :  1.239776611328125e-05
temps d'execution :  1.2636184692382812e-05
temps d'execution :  1.2874603271484375e-05
temps d'execution :  1.33514404296875e-05
temps d'execution :  1.3828277587890625e-05
temps d'execution :  1.430511474609375e-05
temps d'execution :  1.4781951904296875e-05
temps d'execution :  1.5497207641601562e-05
temps d'execution :  1.5974044799804688e-05
temps d'execution :  1.621246337890625e-05
temps d'execution :  1.6450881958007812e-05
temps d'execution :  1.6927719116210938e-05
temps d'execution :  1.7404556274414062e-05
temps d'execution :  1.7642974853515625e-05
temps d'execution :  1.7881393432617188e-05
temps d'execution :  1.811981201171875e-05
temps d'execution :  1.8358230590820312e-05
temps d'execution :  1.8596649169921875e-05
temps d'execution :  1.9073486328125e-05
temps d'execution :  1.9311904907226562e-05
temps d'execution :  1.9788742065429688e-05
temps d'execution :  2.0265579223632812e-05
temps d'execution CLPEX  0.009754419326782227
lp support ['PK', 'MDH', 'ATPASE', 'LEAK', 'PDH', 'PGI', 'PGK', 'HK', 'PFK', 'CS', 'SDH', 'CITS', 'SCOAS', 'AKGDH']
lits for clause [6, 18, 29, 28, 12, 3, 5, 2, 4, 13, 17, 14, 16, 15]
temps d'execution :  0.009872674942016602
temps d'execution :  0.009873151779174805
temps d'execution :  0.009873390197753906
temps d'execution :  0.009873628616333008
temps d'execution :  0.00987386703491211
temps d'execution :  0.009874105453491211
temps d'execution :  0.009874343872070312
temps d'execution :  0.009874820709228516
temps d'execution CLPEX  0.01341104507446289

LP Solver output
(0.0, {'flux("GLNS_rev")': 0.0, 'flux("GROWTH")': 0.0, 'flux("PK")': 0.0, 'flux("CK")': 0.0, 'flux("MDH")': 0.01, 'flux("GLNT_rev")': 0.0, 'flux("CK_rev")': 0.0, 'flux("ATPASE")': 0.0666, 'flux("GLNS")': 0.0, 'flux("LEAK")': 0.0, 'flux("PDH")': 0.01, 'flux("PGI")': 0.0, 'flux("GLUT")': 0.0, 'flux("LDH_rev")': 0.01, 'flux("TK")': 0.0, 'flux("EP")': 0.0, 'flux("GLNT")': 0.0, 'flux("AK")': 0.0, 'flux("PGK")': 0.0, 'flux("HK")': 0.0, 'flux("GLDH")': 0.0, 'flux("PFK")': 0.0, 'flux("AK_rev")': 0.0, 'flux("CS")': 0.01, 'flux("PPRIBP")': 0.0, 'flux("G6PDH")': 0.0, 'flux("NADPHOX")': 0.0, 'flux("ALATA")': 0.0, 'flux("RESP")': 0.0283, 'flux("LDH")': 0.0, 'flux("SDH")': 0.01, 'flux("CITS")': 0.01, 'flux("ME")': 0.0, 'flux("SCOAS")': 0.01, 'flux("AKGDH")': 0.01})
Answer: 1
support("LDH_rev") support("PDH") support("CS") support("CITS") support("AKGDH") support("SCOAS") support("SDH") support("MDH") support("RESP") support("ATPASE")

LP solver calls: 61   Time cplex :  0.011621236801147461


temps d'execution :  0.013548851013183594
temps d'execution :  0.013549089431762695
temps d'execution :  0.013549327850341797
temps d'execution CLPEX  0.016797304153442383

LP Solver output
(0.0, {'flux("GLNS_rev")': 0.0, 'flux("GROWTH")': 0.0, 'flux("PK")': 0.0, 'flux("CK")': 0.0, 'flux("MDH")': 0.01, 'flux("GLNT_rev")': 0.0, 'flux("CK_rev")': 0.0, 'flux("ATPASE")': 0.01, 'flux("GLNS")': 0.0, 'flux("LEAK")': 0.0283, 'flux("PDH")': 0.01, 'flux("PGI")': 0.0, 'flux("GLUT")': 0.0, 'flux("LDH_rev")': 0.01, 'flux("TK")': 0.0, 'flux("EP")': 0.0, 'flux("GLNT")': 0.0, 'flux("AK")': 0.0, 'flux("PGK")': 0.0, 'flux("HK")': 0.0, 'flux("GLDH")': 0.0, 'flux("PFK")': 0.0, 'flux("AK_rev")': 0.0, 'flux("CS")': 0.01, 'flux("PPRIBP")': 0.0, 'flux("G6PDH")': 0.0, 'flux("NADPHOX")': 0.0, 'flux("ALATA")': 0.0, 'flux("RESP")': 0.0, 'flux("LDH")': 0.0, 'flux("SDH")': 0.01, 'flux("CITS")': 0.01, 'flux("ME")': 0.0, 'flux("SCOAS")': 0.01, 'flux("AKGDH")': 0.01})
Answer: 2
support("LDH_rev") support("PDH") support("CS") support("CITS") support("AKGDH") support("SCOAS") support("SDH") support("MDH") support("LEAK") support("ATPASE")

LP solver calls: 65   Time cplex :  0.012369155883789062


temps d'execution :  0.016953468322753906
temps d'execution :  0.01695394515991211
temps d'execution :  0.016954421997070312
temps d'execution :  0.016954898834228516
temps d'execution :  0.01695537567138672
temps d'execution :  0.016956090927124023
temps d'execution CLPEX  0.02025461196899414

LP Solver output
(0.0, {'flux("GLNS_rev")': 0.0, 'flux("GROWTH")': 0.0, 'flux("PK")': 0.0, 'flux("CK")': 0.01, 'flux("MDH")': 0.0, 'flux("GLNT_rev")': 0.0, 'flux("CK_rev")': 0.0, 'flux("ATPASE")': 0.01, 'flux("GLNS")': 0.01, 'flux("LEAK")': 0.0, 'flux("PDH")': 0.0, 'flux("PGI")': 0.0, 'flux("GLUT")': 0.01, 'flux("LDH_rev")': 0.0, 'flux("TK")': 0.0, 'flux("EP")': 0.0, 'flux("GLNT")': 0.01, 'flux("AK")': 0.0, 'flux("PGK")': 0.0, 'flux("HK")': 0.0, 'flux("GLDH")': 0.0, 'flux("PFK")': 0.0, 'flux("AK_rev")': 0.0, 'flux("CS")': 0.0, 'flux("PPRIBP")': 0.0, 'flux("G6PDH")': 0.0, 'flux("NADPHOX")': 0.0, 'flux("ALATA")': 0.0, 'flux("RESP")': 0.0, 'flux("LDH")': 0.0, 'flux("SDH")': 0.0, 'flux("CITS")': 0.0, 'flux("ME")': 0.0, 'flux("SCOAS")': 0.0, 'flux("AKGDH")': 0.0})
Answer: 3
support("GLNT") support("GLNS") support("GLUT") support("ATPASE") support("CK")

LP solver calls: 72   Time cplex :  0.013685464859008789


temps d'execution :  0.020430564880371094
temps d'execution :  0.020430803298950195
temps d'execution :  0.0204312801361084
temps d'execution :  0.0204315185546875
temps d'execution :  0.0204317569732666
temps d'execution CLPEX  0.02438521385192871
lp support ['PK', 'ATPASE', 'PGI', 'PGK', 'HK', 'PFK', 'LDH']
lits for clause [6, 29, 3, 5, 2, 4, 7]
temps d'execution :  0.024770498275756836
temps d'execution :  0.02477097511291504
temps d'execution :  0.024771451950073242
temps d'execution :  0.024771928787231445
temps d'execution :  0.024772167205810547
temps d'execution :  0.02477264404296875
temps d'execution :  0.02477288246154785
temps d'execution :  0.024773359298706055
temps d'execution :  0.024773597717285156
temps d'execution :  0.024773836135864258
temps d'execution :  0.02477407455444336
temps d'execution :  0.02477431297302246
temps d'execution :  0.024774551391601562
temps d'execution :  0.024775028228759766
temps d'execution :  0.02477550506591797
temps d'execution CLPEX  0.028153419494628906
lp support ['PK', 'ATPASE', 'TK', 'EP', 'PGK', 'HK', 'PFK', 'G6PDH', 'NADPHOX', 'LDH']
lits for clause [6, 29, 11, 10, 5, 2, 4, 9, 35, 7]
temps d'execution :  0.028625965118408203
temps d'execution :  0.028626441955566406
temps d'execution :  0.028626680374145508
temps d'execution :  0.02862691879272461
temps d'execution :  0.02862715721130371
temps d'execution :  0.028627872467041016
temps d'execution :  0.028628110885620117
temps d'execution :  0.02862858772277832
temps d'execution :  0.028628826141357422
temps d'execution CLPEX  0.03193020820617676
lp support ['PK', 'MDH', 'ATPASE', 'PDH', 'PGI', 'PGK', 'HK', 'PFK', 'CS', 'RESP', 'SDH', 'CITS', 'SCOAS', 'AKGDH']
lits for clause [6, 18, 29, 12, 3, 5, 2, 4, 13, 27, 17, 14, 16, 15]
temps d'execution :  0.03248763084411621
temps d'execution :  0.032488107681274414
temps d'execution :  0.03248858451843262
temps d'execution :  0.03248882293701172
temps d'execution :  0.03248906135559082
temps d'execution :  0.03248929977416992
temps d'execution :  0.032489776611328125
temps d'execution CLPEX  0.03598523139953613
lp support ['PK', 'MDH', 'ATPASE', 'LEAK', 'PDH', 'TK', 'EP', 'PGK', 'HK', 'PFK', 'CS', 'G6PDH', 'NADPHOX', 'SDH', 'CITS', 'SCOAS', 'AKGDH']
lits for clause [6, 18, 29, 28, 12, 11, 10, 5, 2, 4, 13, 9, 35, 17, 14, 16, 15]
temps d'execution :  0.03662753105163574
temps d'execution :  0.03662824630737305
temps d'execution :  0.03662872314453125
temps d'execution :  0.036629438400268555
temps d'execution CLPEX  0.04021620750427246
lp support ['PK', 'MDH', 'ATPASE', 'PDH', 'TK', 'EP', 'PGK', 'HK', 'PFK', 'CS', 'G6PDH', 'NADPHOX', 'RESP', 'SDH', 'CITS', 'SCOAS', 'AKGDH']
lits for clause [6, 18, 29, 12, 11, 10, 5, 2, 4, 13, 9, 35, 27, 17, 14, 16, 15]
temps d'execution :  0.040953636169433594
temps d'execution :  0.0409541130065918
temps d'execution :  0.04095458984375
temps d'execution :  0.0409548282623291
temps d'execution :  0.0409550666809082
temps d'execution :  0.040955543518066406
temps d'execution :  0.04095602035522461
temps d'execution :  0.04095649719238281
temps d'execution :  0.040956735610961914
temps d'execution :  0.040956974029541016
temps d'execution CLPEX  0.04348587989807129

LP Solver output
(0.0, {'flux("GLNS_rev")': 0.0, 'flux("GROWTH")': 0.0, 'flux("PK")': 0.0, 'flux("CK")': 0.01, 'flux("MDH")': 0.0, 'flux("GLNT_rev")': 0.0, 'flux("CK_rev")': 0.0, 'flux("ATPASE")': 0.01, 'flux("GLNS")': 0.01, 'flux("LEAK")': 0.0133, 'flux("PDH")': 0.0, 'flux("PGI")': 0.0, 'flux("GLUT")': 0.0, 'flux("LDH_rev")': 0.0, 'flux("TK")': 0.0, 'flux("EP")': 0.0, 'flux("GLNT")': 0.01, 'flux("AK")': 0.0, 'flux("PGK")': 0.0, 'flux("HK")': 0.0, 'flux("GLDH")': 0.0, 'flux("PFK")': 0.0, 'flux("AK_rev")': 0.0, 'flux("CS")': 0.0, 'flux("PPRIBP")': 0.0, 'flux("G6PDH")': 0.0, 'flux("NADPHOX")': 0.0, 'flux("ALATA")': 0.01, 'flux("RESP")': 0.0, 'flux("LDH")': 0.0, 'flux("SDH")': 0.01, 'flux("CITS")': 0.0, 'flux("ME")': 0.01, 'flux("SCOAS")': 0.01, 'flux("AKGDH")': 0.01})
Answer: 4
support("AKGDH") support("SCOAS") support("SDH") support("ME") support("GLNT") support("GLNS") support("ALATA") support("LEAK") support("ATPASE") support("CK")

LP solver calls: 128   Time cplex :  0.025748729705810547


temps d'execution :  0.04424405097961426
temps d'execution :  0.04424428939819336
temps d'execution :  0.04424452781677246
temps d'execution :  0.044245004653930664
temps d'execution :  0.044245243072509766
temps d'execution CLPEX  0.046831369400024414

LP Solver output
(0.0, {'flux("GLNS_rev")': 0.0, 'flux("GROWTH")': 0.0, 'flux("PK")': 0.0, 'flux("CK")': 0.01, 'flux("MDH")': 0.0, 'flux("GLNT_rev")': 0.0, 'flux("CK_rev")': 0.0, 'flux("ATPASE")': 0.0366, 'flux("GLNS")': 0.01, 'flux("LEAK")': 0.0, 'flux("PDH")': 0.0, 'flux("PGI")': 0.0, 'flux("GLUT")': 0.0, 'flux("LDH_rev")': 0.0, 'flux("TK")': 0.0, 'flux("EP")': 0.0, 'flux("GLNT")': 0.01, 'flux("AK")': 0.0, 'flux("PGK")': 0.0, 'flux("HK")': 0.0, 'flux("GLDH")': 0.0, 'flux("PFK")': 0.0, 'flux("AK_rev")': 0.0, 'flux("CS")': 0.0, 'flux("PPRIBP")': 0.0, 'flux("G6PDH")': 0.0, 'flux("NADPHOX")': 0.0, 'flux("ALATA")': 0.01, 'flux("RESP")': 0.0133, 'flux("LDH")': 0.0, 'flux("SDH")': 0.01, 'flux("CITS")': 0.0, 'flux("ME")': 0.01, 'flux("SCOAS")': 0.01, 'flux("AKGDH")': 0.01})
Answer: 5
support("AKGDH") support("SCOAS") support("SDH") support("ME") support("GLNT") support("GLNS") support("ALATA") support("RESP") support("ATPASE") support("CK")

LP solver calls: 134   Time cplex :  0.026920318603515625


temps d'execution :  0.0476076602935791
temps d'execution :  0.047608137130737305
temps d'execution :  0.047608375549316406
temps d'execution :  0.04760861396789551
temps d'execution :  0.04760909080505371
temps d'execution :  0.047609567642211914
temps d'execution :  0.047609806060791016
temps d'execution :  0.04761028289794922
temps d'execution :  0.04761075973510742
temps d'execution :  0.047611236572265625
temps d'execution :  0.04761147499084473
temps d'execution :  0.04761171340942383
temps d'execution :  0.04761219024658203
temps d'execution CLPEX  0.050683021545410156

LP Solver output
(0.0, {'flux("GLNS_rev")': 0.0, 'flux("GROWTH")': 0.01, 'flux("PK")': 0.0, 'flux("CK")': 0.25041, 'flux("MDH")': 0.13227, 'flux("GLNT_rev")': 0.0, 'flux("CK_rev")': 0.0, 'flux("ATPASE")': 1.0883304, 'flux("GLNS")': 0.0, 'flux("LEAK")': 0.0, 'flux("PDH")': 0.13227, 'flux("PGI")': 0.0, 'flux("GLUT")': 0.0, 'flux("LDH_rev")': 0.0, 'flux("TK")': 0.0, 'flux("EP")': 0.0, 'flux("GLNT")': 0.076, 'flux("AK")': 0.0378, 'flux("PGK")': 0.0, 'flux("HK")': 0.02321, 'flux("GLDH")': 0.07527, 'flux("PFK")': 0.0, 'flux("AK_rev")': 0.0, 'flux("CS")': 0.13227, 'flux("PPRIBP")': 0.0378, 'flux("G6PDH")': 0.02292, 'flux("NADPHOX")': 0.04584, 'flux("ALATA")': 0.0, 'flux("RESP")': 0.4496952, 'flux("LDH")': 0.0, 'flux("SDH")': 0.18894, 'flux("CITS")': 0.11367, 'flux("ME")': 0.13227, 'flux("SCOAS")': 0.18894, 'flux("AKGDH")': 0.18894})
Answer: 6
support("HK") support("G6PDH") support("PDH") support("CS") support("CITS") support("AKGDH") support("SCOAS") support("SDH") support("MDH") support("ME") support("GLNT") support("GLDH") support("RESP") support("ATPASE") support("AK") support("CK") support("PPRIBP") support("NADPHOX") support("GROWTH")

LP solver calls: 148   Time cplex :  0.031035423278808594


temps d'execution :  0.051482200622558594
temps d'execution CLPEX  0.05414748191833496

LP Solver output
(0.0, {'flux("GLNS_rev")': 0.0, 'flux("GROWTH")': 0.01, 'flux("PK")': 0.0, 'flux("CK")': 0.25041, 'flux("MDH")': 0.057, 'flux("GLNT_rev")': 0.0, 'flux("CK_rev")': 0.0, 'flux("ATPASE")': 0.386814, 'flux("GLNS")': 0.0, 'flux("LEAK")': 0.0, 'flux("PDH")': 0.057, 'flux("PGI")': 0.0, 'flux("GLUT")': 0.07527, 'flux("LDH_rev")': 0.0, 'flux("TK")': 0.0, 'flux("EP")': 0.0, 'flux("GLNT")': 0.076, 'flux("AK")': 0.0378, 'flux("PGK")': 0.0, 'flux("HK")': 0.02321, 'flux("GLDH")': 0.0, 'flux("PFK")': 0.0, 'flux("AK_rev")': 0.0, 'flux("CS")': 0.057, 'flux("PPRIBP")': 0.0378, 'flux("G6PDH")': 0.02292, 'flux("NADPHOX")': 0.04584, 'flux("ALATA")': 0.0, 'flux("RESP")': 0.136572, 'flux("LDH")': 0.0, 'flux("SDH")': 0.0384, 'flux("CITS")': 0.0384, 'flux("ME")': 0.057, 'flux("SCOAS")': 0.0384, 'flux("AKGDH")': 0.0384})
Answer: 7
support("HK") support("G6PDH") support("PDH") support("CS") support("CITS") support("AKGDH") support("SCOAS") support("SDH") support("MDH") support("ME") support("GLNT") support("GLUT") support("RESP") support("ATPASE") support("AK") support("CK") support("PPRIBP") support("NADPHOX") support("GROWTH")

LP solver calls: 150   Time cplex :  0.03163337707519531


temps d'execution :  0.054964542388916016
temps d'execution :  0.05496478080749512
temps d'execution :  0.05496501922607422
temps d'execution :  0.05496525764465332
temps d'execution CLPEX  0.05866217613220215

LP Solver output
(0.0, {'flux("GLNS_rev")': 0.0, 'flux("GROWTH")': 0.0, 'flux("PK")': 0.0, 'flux("CK")': 0.01, 'flux("MDH")': 0.01, 'flux("GLNT_rev")': 0.0, 'flux("CK_rev")': 0.0, 'flux("ATPASE")': 0.02, 'flux("GLNS")': 0.01, 'flux("LEAK")': 0.0416, 'flux("PDH")': 0.01, 'flux("PGI")': 0.0, 'flux("GLUT")': 0.0, 'flux("LDH_rev")': 0.0, 'flux("TK")': 0.0, 'flux("EP")': 0.0, 'flux("GLNT")': 0.01, 'flux("AK")': 0.0, 'flux("PGK")': 0.0, 'flux("HK")': 0.0, 'flux("GLDH")': 0.01, 'flux("PFK")': 0.0, 'flux("AK_rev")': 0.0, 'flux("CS")': 0.01, 'flux("PPRIBP")': 0.0, 'flux("G6PDH")': 0.0, 'flux("NADPHOX")': 0.0, 'flux("ALATA")': 0.0, 'flux("RESP")': 0.0, 'flux("LDH")': 0.0, 'flux("SDH")': 0.02, 'flux("CITS")': 0.01, 'flux("ME")': 0.01, 'flux("SCOAS")': 0.02, 'flux("AKGDH")': 0.02})
Answer: 8
support("PDH") support("CS") support("CITS") support("AKGDH") support("SCOAS") support("SDH") support("MDH") support("ME") support("GLNT") support("GLNS") support("GLDH") support("LEAK") support("ATPASE") support("CK")

LP solver calls: 155   Time cplex :  0.03276252746582031


temps d'execution CLPEX  0.06195402145385742

LP Solver output
(0.0, {'flux("GLNS_rev")': 0.0, 'flux("GROWTH")': 0.0, 'flux("PK")': 0.0, 'flux("CK")': 0.01, 'flux("MDH")': 0.01, 'flux("GLNT_rev")': 0.0, 'flux("CK_rev")': 0.0, 'flux("ATPASE")': 0.1032, 'flux("GLNS")': 0.01, 'flux("LEAK")': 0.0, 'flux("PDH")': 0.01, 'flux("PGI")': 0.0, 'flux("GLUT")': 0.0, 'flux("LDH_rev")': 0.0, 'flux("TK")': 0.0, 'flux("EP")': 0.0, 'flux("GLNT")': 0.01, 'flux("AK")': 0.0, 'flux("PGK")': 0.0, 'flux("HK")': 0.0, 'flux("GLDH")': 0.01, 'flux("PFK")': 0.0, 'flux("AK_rev")': 0.0, 'flux("CS")': 0.01, 'flux("PPRIBP")': 0.0, 'flux("G6PDH")': 0.0, 'flux("NADPHOX")': 0.0, 'flux("ALATA")': 0.0, 'flux("RESP")': 0.0416, 'flux("LDH")': 0.0, 'flux("SDH")': 0.02, 'flux("CITS")': 0.01, 'flux("ME")': 0.01, 'flux("SCOAS")': 0.02, 'flux("AKGDH")': 0.02})
Answer: 9
support("PDH") support("CS") support("CITS") support("AKGDH") support("SCOAS") support("SDH") support("MDH") support("ME") support("GLNT") support("GLNS") support("GLDH") support("RESP") support("ATPASE") support("CK")

LP solver calls: 156   Time cplex :  0.03293895721435547


temps d'execution :  0.06280636787414551
temps d'execution :  0.06280684471130371
temps d'execution :  0.06280708312988281
temps d'execution :  0.06280732154846191
temps d'execution :  0.06280755996704102
temps d'execution CLPEX  0.06651186943054199

LP Solver output
(0.0, {'flux("GLNS_rev")': 1.0310958904, 'flux("GROWTH")': 0.1369863014, 'flux("PK")': 0.0, 'flux("CK")': 2.3991780822, 'flux("MDH")': 0.7808219178, 'flux("GLNT_rev")': 0.0, 'flux("CK_rev")': 0.0, 'flux("ATPASE")': 0.5260273973, 'flux("GLNS")': 0.0, 'flux("LEAK")': 1.8708493151, 'flux("PDH")': 0.7808219178, 'flux("PGI")': 0.0, 'flux("GLUT")': 0.0, 'flux("LDH_rev")': 0.0, 'flux("TK")': 0.0, 'flux("EP")': 0.0, 'flux("GLNT")': 0.01, 'flux("AK")': 0.5178082192, 'flux("PGK")': 0.0, 'flux("HK")': 0.3179452055, 'flux("GLDH")': 0.0, 'flux("PFK")': 0.0, 'flux("AK_rev")': 0.0, 'flux("CS")': 0.7808219178, 'flux("PPRIBP")': 0.5178082192, 'flux("G6PDH")': 0.3139726027, 'flux("NADPHOX")': 0.6279452055, 'flux("ALATA")': 0.0, 'flux("RESP")': 0.0, 'flux("LDH")': 0.0, 'flux("SDH")': 0.5260273973, 'flux("CITS")': 0.5260273973, 'flux("ME")': 0.7808219178, 'flux("SCOAS")': 0.5260273973, 'flux("AKGDH")': 0.5260273973})
Answer: 10
support("HK") support("G6PDH") support("PDH") support("CS") support("CITS") support("AKGDH") support("SCOAS") support("SDH") support("MDH") support("ME") support("GLNT") support("GLNS_rev") support("LEAK") support("ATPASE") support("AK") support("CK") support("PPRIBP") support("NADPHOX") support("GROWTH")

LP solver calls: 162   Time cplex :  0.03475594520568848


temps d'execution CLPEX  0.07012414932250977

LP Solver output
(0.0, {'flux("GLNS_rev")': 0.0, 'flux("GROWTH")': 0.01, 'flux("PK")': 0.0, 'flux("CK")': 0.25041, 'flux("MDH")': 0.057, 'flux("GLNT_rev")': 0.0, 'flux("CK_rev")': 0.0, 'flux("ATPASE")': 0.11367, 'flux("GLNS")': 0.0, 'flux("LEAK")': 0.136572, 'flux("PDH")': 0.057, 'flux("PGI")': 0.0, 'flux("GLUT")': 0.07527, 'flux("LDH_rev")': 0.0, 'flux("TK")': 0.0, 'flux("EP")': 0.0, 'flux("GLNT")': 0.076, 'flux("AK")': 0.0378, 'flux("PGK")': 0.0, 'flux("HK")': 0.02321, 'flux("GLDH")': 0.0, 'flux("PFK")': 0.0, 'flux("AK_rev")': 0.0, 'flux("CS")': 0.057, 'flux("PPRIBP")': 0.0378, 'flux("G6PDH")': 0.02292, 'flux("NADPHOX")': 0.04584, 'flux("ALATA")': 0.0, 'flux("RESP")': 0.0, 'flux("LDH")': 0.0, 'flux("SDH")': 0.0384, 'flux("CITS")': 0.0384, 'flux("ME")': 0.057, 'flux("SCOAS")': 0.0384, 'flux("AKGDH")': 0.0384})
Answer: 11
support("HK") support("G6PDH") support("PDH") support("CS") support("CITS") support("AKGDH") support("SCOAS") support("SDH") support("MDH") support("ME") support("GLNT") support("GLUT") support("LEAK") support("ATPASE") support("AK") support("CK") support("PPRIBP") support("NADPHOX") support("GROWTH")

LP solver calls: 163   Time cplex :  0.03511762619018555


temps d'execution CLPEX  0.07369232177734375

LP Solver output
(0.0, {'flux("GLNS_rev")': 1.0310958904, 'flux("GROWTH")': 0.1369863014, 'flux("PK")': 0.0, 'flux("CK")': 2.3991780822, 'flux("MDH")': 0.7808219178, 'flux("GLNT_rev")': 0.0, 'flux("CK_rev")': 0.0, 'flux("ATPASE")': 4.2677260274, 'flux("GLNS")': 0.0, 'flux("LEAK")': 0.0, 'flux("PDH")': 0.7808219178, 'flux("PGI")': 0.0, 'flux("GLUT")': 0.0, 'flux("LDH_rev")': 0.0, 'flux("TK")': 0.0, 'flux("EP")': 0.0, 'flux("GLNT")': 0.01, 'flux("AK")': 0.5178082192, 'flux("PGK")': 0.0, 'flux("HK")': 0.3179452055, 'flux("GLDH")': 0.0, 'flux("PFK")': 0.0, 'flux("AK_rev")': 0.0, 'flux("CS")': 0.7808219178, 'flux("PPRIBP")': 0.5178082192, 'flux("G6PDH")': 0.3139726027, 'flux("NADPHOX")': 0.6279452055, 'flux("ALATA")': 0.0, 'flux("RESP")': 1.8708493151, 'flux("LDH")': 0.0, 'flux("SDH")': 0.5260273973, 'flux("CITS")': 0.5260273973, 'flux("ME")': 0.7808219178, 'flux("SCOAS")': 0.5260273973, 'flux("AKGDH")': 0.5260273973})
Answer: 12
support("HK") support("G6PDH") support("PDH") support("CS") support("CITS") support("AKGDH") support("SCOAS") support("SDH") support("MDH") support("ME") support("GLNT") support("GLNS_rev") support("RESP") support("ATPASE") support("AK") support("CK") support("PPRIBP") support("NADPHOX") support("GROWTH")

LP solver calls: 164   Time cplex :  0.035463571548461914


temps d'execution CLPEX  0.07736420631408691

LP Solver output
(0.0, {'flux("GLNS_rev")': 0.0, 'flux("GROWTH")': 0.01, 'flux("PK")': 0.0, 'flux("CK")': 0.25041, 'flux("MDH")': 0.13227, 'flux("GLNT_rev")': 0.0, 'flux("CK_rev")': 0.0, 'flux("ATPASE")': 0.18894, 'flux("GLNS")': 0.0, 'flux("LEAK")': 0.4496952, 'flux("PDH")': 0.13227, 'flux("PGI")': 0.0, 'flux("GLUT")': 0.0, 'flux("LDH_rev")': 0.0, 'flux("TK")': 0.0, 'flux("EP")': 0.0, 'flux("GLNT")': 0.076, 'flux("AK")': 0.0378, 'flux("PGK")': 0.0, 'flux("HK")': 0.02321, 'flux("GLDH")': 0.07527, 'flux("PFK")': 0.0, 'flux("AK_rev")': 0.0, 'flux("CS")': 0.13227, 'flux("PPRIBP")': 0.0378, 'flux("G6PDH")': 0.02292, 'flux("NADPHOX")': 0.04584, 'flux("ALATA")': 0.0, 'flux("RESP")': 0.0, 'flux("LDH")': 0.0, 'flux("SDH")': 0.18894, 'flux("CITS")': 0.11367, 'flux("ME")': 0.13227, 'flux("SCOAS")': 0.18894, 'flux("AKGDH")': 0.18894})
Answer: 13
support("HK") support("G6PDH") support("PDH") support("CS") support("CITS") support("AKGDH") support("SCOAS") support("SDH") support("MDH") support("ME") support("GLNT") support("GLDH") support("LEAK") support("ATPASE") support("AK") support("CK") support("PPRIBP") support("NADPHOX") support("GROWTH")

LP solver calls: 165   Time cplex :  0.03578472137451172


temps d'execution :  0.07828950881958008
temps d'execution CLPEX  0.08106493949890137

LP Solver output
(0.0, {'flux("GLNS_rev")': 0.0, 'flux("GROWTH")': 0.01, 'flux("PK")': 0.0, 'flux("CK")': 0.25041, 'flux("MDH")': 0.057, 'flux("GLNT_rev")': 0.0, 'flux("CK_rev")': 0.0, 'flux("ATPASE")': 0.5870322, 'flux("GLNS")': 0.0, 'flux("LEAK")': 0.0, 'flux("PDH")': 0.057, 'flux("PGI")': 0.0, 'flux("GLUT")': 0.0, 'flux("LDH_rev")': 0.0, 'flux("TK")': 0.0, 'flux("EP")': 0.0, 'flux("GLNT")': 0.076, 'flux("AK")': 0.0378, 'flux("PGK")': 0.0, 'flux("HK")': 0.02321, 'flux("GLDH")': 0.0, 'flux("PFK")': 0.0, 'flux("AK_rev")': 0.0, 'flux("CS")': 0.057, 'flux("PPRIBP")': 0.0378, 'flux("G6PDH")': 0.02292, 'flux("NADPHOX")': 0.04584, 'flux("ALATA")': 0.07527, 'flux("RESP")': 0.2366811, 'flux("LDH")': 0.0, 'flux("SDH")': 0.11367, 'flux("CITS")': 0.0384, 'flux("ME")': 0.13227, 'flux("SCOAS")': 0.11367, 'flux("AKGDH")': 0.11367})
Answer: 14
support("HK") support("G6PDH") support("PDH") support("CS") support("CITS") support("AKGDH") support("SCOAS") support("SDH") support("MDH") support("ME") support("GLNT") support("ALATA") support("RESP") support("ATPASE") support("AK") support("CK") support("PPRIBP") support("NADPHOX") support("GROWTH")

LP solver calls: 167   Time cplex :  0.036450862884521484


temps d'execution CLPEX  0.0858314037322998

LP Solver output
(0.0, {'flux("GLNS_rev")': 0.0, 'flux("GROWTH")': 0.01, 'flux("PK")': 0.0, 'flux("CK")': 0.25041, 'flux("MDH")': 0.057, 'flux("GLNT_rev")': 0.0, 'flux("CK_rev")': 0.0, 'flux("ATPASE")': 0.11367, 'flux("GLNS")': 0.0, 'flux("LEAK")': 0.2366811, 'flux("PDH")': 0.057, 'flux("PGI")': 0.0, 'flux("GLUT")': 0.0, 'flux("LDH_rev")': 0.0, 'flux("TK")': 0.0, 'flux("EP")': 0.0, 'flux("GLNT")': 0.076, 'flux("AK")': 0.0378, 'flux("PGK")': 0.0, 'flux("HK")': 0.02321, 'flux("GLDH")': 0.0, 'flux("PFK")': 0.0, 'flux("AK_rev")': 0.0, 'flux("CS")': 0.057, 'flux("PPRIBP")': 0.0378, 'flux("G6PDH")': 0.02292, 'flux("NADPHOX")': 0.04584, 'flux("ALATA")': 0.07527, 'flux("RESP")': 0.0, 'flux("LDH")': 0.0, 'flux("SDH")': 0.11367, 'flux("CITS")': 0.0384, 'flux("ME")': 0.13227, 'flux("SCOAS")': 0.11367, 'flux("AKGDH")': 0.11367})
Answer: 15
support("HK") support("G6PDH") support("PDH") support("CS") support("CITS") support("AKGDH") support("SCOAS") support("SDH") support("MDH") support("ME") support("GLNT") support("ALATA") support("LEAK") support("ATPASE") support("AK") support("CK") support("PPRIBP") support("NADPHOX") support("GROWTH")

LP solver calls: 168   Time cplex :  0.036780357360839844


temps d'execution :  0.0867929458618164
temps d'execution :  0.08679318428039551
temps d'execution :  0.08679366111755371
temps d'execution :  0.08679413795471191
temps d'execution :  0.08679461479187012
temps d'execution :  0.08679485321044922
temps d'execution :  0.08679509162902832
temps d'execution :  0.08679533004760742
temps d'execution CLPEX  0.0890204906463623

LP Solver output
(0.0, {'flux("GLNS_rev")': 0.0, 'flux("GROWTH")': 0.0, 'flux("PK")': 0.0, 'flux("CK")': 0.01, 'flux("MDH")': 0.0, 'flux("GLNT_rev")': 0.0, 'flux("CK_rev")': 0.0, 'flux("ATPASE")': 0.0366, 'flux("GLNS")': 0.01, 'flux("LEAK")': 0.0, 'flux("PDH")': 0.0, 'flux("PGI")': 0.0, 'flux("GLUT")': 0.0, 'flux("LDH_rev")': 0.0, 'flux("TK")': 0.0, 'flux("EP")': 0.0, 'flux("GLNT")': 0.01, 'flux("AK")': 0.0, 'flux("PGK")': 0.0, 'flux("HK")': 0.0, 'flux("GLDH")': 0.01, 'flux("PFK")': 0.0, 'flux("AK_rev")': 0.0, 'flux("CS")': 0.0, 'flux("PPRIBP")': 0.0, 'flux("G6PDH")': 0.0, 'flux("NADPHOX")': 0.0, 'flux("ALATA")': 0.0, 'flux("RESP")': 0.0133, 'flux("LDH")': 0.01, 'flux("SDH")': 0.01, 'flux("CITS")': 0.0, 'flux("ME")': 0.01, 'flux("SCOAS")': 0.01, 'flux("AKGDH")': 0.01})
Answer: 16
support("LDH") support("AKGDH") support("SCOAS") support("SDH") support("ME") support("GLNT") support("GLNS") support("GLDH") support("RESP") support("ATPASE") support("CK")

LP solver calls: 177   Time cplex :  0.03905820846557617


temps d'execution :  0.09000229835510254
temps d'execution :  0.09000253677368164
temps d'execution CLPEX  0.09217429161071777

LP Solver output
(0.0, {'flux("GLNS_rev")': 0.0, 'flux("GROWTH")': 0.0, 'flux("PK")': 0.0, 'flux("CK")': 0.01, 'flux("MDH")': 0.0, 'flux("GLNT_rev")': 0.0, 'flux("CK_rev")': 0.0, 'flux("ATPASE")': 0.01, 'flux("GLNS")': 0.01, 'flux("LEAK")': 0.0133, 'flux("PDH")': 0.0, 'flux("PGI")': 0.0, 'flux("GLUT")': 0.0, 'flux("LDH_rev")': 0.0, 'flux("TK")': 0.0, 'flux("EP")': 0.0, 'flux("GLNT")': 0.01, 'flux("AK")': 0.0, 'flux("PGK")': 0.0, 'flux("HK")': 0.0, 'flux("GLDH")': 0.01, 'flux("PFK")': 0.0, 'flux("AK_rev")': 0.0, 'flux("CS")': 0.0, 'flux("PPRIBP")': 0.0, 'flux("G6PDH")': 0.0, 'flux("NADPHOX")': 0.0, 'flux("ALATA")': 0.0, 'flux("RESP")': 0.0, 'flux("LDH")': 0.01, 'flux("SDH")': 0.01, 'flux("CITS")': 0.0, 'flux("ME")': 0.01, 'flux("SCOAS")': 0.01, 'flux("AKGDH")': 0.01})
Answer: 17
support("LDH") support("AKGDH") support("SCOAS") support("SDH") support("ME") support("GLNT") support("GLNS") support("GLDH") support("LEAK") support("ATPASE") support("CK")

LP solver calls: 180   Time cplex :  0.03954815864562988


temps d'execution :  0.09317374229431152
temps d'execution :  0.09317421913146973
temps d'execution :  0.09317445755004883
temps d'execution :  0.09317493438720703
temps d'execution :  0.09317517280578613
temps d'execution :  0.09317541122436523
temps d'execution :  0.09317564964294434
temps d'execution :  0.09317588806152344
temps d'execution CLPEX  0.09661030769348145

LP Solver output
(0.0, {'flux("GLNS_rev")': 1.0310958904, 'flux("GROWTH")': 0.1369863014, 'flux("PK")': 0.0, 'flux("CK")': 2.3991780822, 'flux("MDH")': 0.2547945205, 'flux("GLNT_rev")': 0.0, 'flux("CK_rev")': 0.0, 'flux("ATPASE")': 0.7643835616, 'flux("GLNS")': 0.0, 'flux("LEAK")': 0.0, 'flux("PDH")': 0.2547945205, 'flux("PGI")': 0.0, 'flux("GLUT")': 0.0, 'flux("LDH_rev")': 0.0, 'flux("TK")': 0.0, 'flux("EP")': 0.0, 'flux("GLNT")': 0.01, 'flux("AK")': 0.5178082192, 'flux("PGK")': 0.0, 'flux("HK")': 0.3179452055, 'flux("GLDH")': 0.0, 'flux("PFK")': 0.0, 'flux("AK_rev")': 0.0, 'flux("CS")': 0.2547945205, 'flux("PPRIBP")': 0.5178082192, 'flux("G6PDH")': 0.3139726027, 'flux("NADPHOX")': 0.6279452055, 'flux("ALATA")': 0.0, 'flux("RESP")': 0.3821917808, 'flux("LDH")': 0.5260273973, 'flux("SDH")': 0.0, 'flux("CITS")': 0.0, 'flux("ME")': 0.7808219178, 'flux("SCOAS")': 0.0, 'flux("AKGDH")': 0.0})
Answer: 18
support("HK") support("LDH") support("G6PDH") support("PDH") support("CS") support("MDH") support("ME") support("GLNT") support("GLNS_rev") support("RESP") support("ATPASE") support("AK") support("CK") support("PPRIBP") support("NADPHOX") support("GROWTH")

LP solver calls: 189   Time cplex :  0.0420992374420166


temps d'execution :  0.09763169288635254
temps d'execution CLPEX  0.10023093223571777

LP Solver output
(0.0, {'flux("GLNS_rev")': 0.0, 'flux("GROWTH")': 0.01, 'flux("PK")': 0.0, 'flux("CK")': 0.25041, 'flux("MDH")': 0.0186, 'flux("GLNT_rev")': 0.0, 'flux("CK_rev")': 0.0, 'flux("ATPASE")': 0.13107, 'flux("GLNS")': 0.0, 'flux("LEAK")': 0.0, 'flux("PDH")': 0.0186, 'flux("PGI")': 0.0, 'flux("GLUT")': 0.07527, 'flux("LDH_rev")': 0.0, 'flux("TK")': 0.0, 'flux("EP")': 0.0, 'flux("GLNT")': 0.076, 'flux("AK")': 0.0378, 'flux("PGK")': 0.0, 'flux("HK")': 0.02321, 'flux("GLDH")': 0.0, 'flux("PFK")': 0.0, 'flux("AK_rev")': 0.0, 'flux("CS")': 0.0186, 'flux("PPRIBP")': 0.0378, 'flux("G6PDH")': 0.02292, 'flux("NADPHOX")': 0.04584, 'flux("ALATA")': 0.0, 'flux("RESP")': 0.0279, 'flux("LDH")': 0.0384, 'flux("SDH")': 0.0, 'flux("CITS")': 0.0, 'flux("ME")': 0.057, 'flux("SCOAS")': 0.0, 'flux("AKGDH")': 0.0})
Answer: 19
support("HK") support("LDH") support("G6PDH") support("PDH") support("CS") support("MDH") support("ME") support("GLNT") support("GLUT") support("RESP") support("ATPASE") support("AK") support("CK") support("PPRIBP") support("NADPHOX") support("GROWTH")

LP solver calls: 191   Time cplex :  0.04268455505371094


temps d'execution :  0.10126972198486328
temps d'execution :  0.10126996040344238
temps d'execution CLPEX  0.10369634628295898

LP Solver output
(0.0, {'flux("GLNS_rev")': 1.0310958904, 'flux("GROWTH")': 0.1369863014, 'flux("PK")': 0.0, 'flux("CK")': 2.3991780822, 'flux("MDH")': 0.2547945205, 'flux("GLNT_rev")': 0.0, 'flux("CK_rev")': 0.0, 'flux("ATPASE")': 0.0, 'flux("GLNS")': 0.0, 'flux("LEAK")': 0.3821917808, 'flux("PDH")': 0.2547945205, 'flux("PGI")': 0.0, 'flux("GLUT")': 0.0, 'flux("LDH_rev")': 0.0, 'flux("TK")': 0.0, 'flux("EP")': 0.0, 'flux("GLNT")': 0.01, 'flux("AK")': 0.5178082192, 'flux("PGK")': 0.0, 'flux("HK")': 0.3179452055, 'flux("GLDH")': 0.0, 'flux("PFK")': 0.0, 'flux("AK_rev")': 0.0, 'flux("CS")': 0.2547945205, 'flux("PPRIBP")': 0.5178082192, 'flux("G6PDH")': 0.3139726027, 'flux("NADPHOX")': 0.6279452055, 'flux("ALATA")': 0.0, 'flux("RESP")': 0.0, 'flux("LDH")': 0.5260273973, 'flux("SDH")': 0.0, 'flux("CITS")': 0.0, 'flux("ME")': 0.7808219178, 'flux("SCOAS")': 0.0, 'flux("AKGDH")': 0.0})
Answer: 20
support("HK") support("LDH") support("G6PDH") support("PDH") support("CS") support("MDH") support("ME") support("GLNT") support("GLNS_rev") support("LEAK") support("AK") support("CK") support("PPRIBP") support("NADPHOX") support("GROWTH")

LP solver calls: 194   Time cplex :  0.04350996017456055


temps d'execution :  0.10475325584411621
temps d'execution CLPEX  0.10705709457397461

LP Solver output
(0.0, {'flux("GLNS_rev")': 0.0, 'flux("GROWTH")': 0.01, 'flux("PK")': 0.0, 'flux("CK")': 0.25041, 'flux("MDH")': 0.0186, 'flux("GLNT_rev")': 0.0, 'flux("CK_rev")': 0.0, 'flux("ATPASE")': 0.07527, 'flux("GLNS")': 0.0, 'flux("LEAK")': 0.0279, 'flux("PDH")': 0.0186, 'flux("PGI")': 0.0, 'flux("GLUT")': 0.07527, 'flux("LDH_rev")': 0.0, 'flux("TK")': 0.0, 'flux("EP")': 0.0, 'flux("GLNT")': 0.076, 'flux("AK")': 0.0378, 'flux("PGK")': 0.0, 'flux("HK")': 0.02321, 'flux("GLDH")': 0.0, 'flux("PFK")': 0.0, 'flux("AK_rev")': 0.0, 'flux("CS")': 0.0186, 'flux("PPRIBP")': 0.0378, 'flux("G6PDH")': 0.02292, 'flux("NADPHOX")': 0.04584, 'flux("ALATA")': 0.0, 'flux("RESP")': 0.0, 'flux("LDH")': 0.0384, 'flux("SDH")': 0.0, 'flux("CITS")': 0.0, 'flux("ME")': 0.057, 'flux("SCOAS")': 0.0, 'flux("AKGDH")': 0.0})
Answer: 21
support("HK") support("LDH") support("G6PDH") support("PDH") support("CS") support("MDH") support("ME") support("GLNT") support("GLUT") support("LEAK") support("ATPASE") support("AK") support("CK") support("PPRIBP") support("NADPHOX") support("GROWTH")

LP solver calls: 196   Time cplex :  0.04406237602233887


temps d'execution :  0.10813260078430176
temps d'execution :  0.10813307762145996
temps d'execution :  0.10813355445861816
temps d'execution CLPEX  0.11070537567138672

LP Solver output
(0.0, {'flux("GLNS_rev")': 0.0, 'flux("GROWTH")': 0.01, 'flux("PK")': 0.0, 'flux("CK")': 0.25041, 'flux("MDH")': 0.0186, 'flux("GLNT_rev")': 0.0, 'flux("CK_rev")': 0.0, 'flux("ATPASE")': 0.07527, 'flux("GLNS")': 0.0, 'flux("LEAK")': 0.1280091, 'flux("PDH")': 0.0186, 'flux("PGI")': 0.0, 'flux("GLUT")': 0.0, 'flux("LDH_rev")': 0.0, 'flux("TK")': 0.0, 'flux("EP")': 0.0, 'flux("GLNT")': 0.076, 'flux("AK")': 0.0378, 'flux("PGK")': 0.0, 'flux("HK")': 0.02321, 'flux("GLDH")': 0.0, 'flux("PFK")': 0.0, 'flux("AK_rev")': 0.0, 'flux("CS")': 0.0186, 'flux("PPRIBP")': 0.0378, 'flux("G6PDH")': 0.02292, 'flux("NADPHOX")': 0.04584, 'flux("ALATA")': 0.07527, 'flux("RESP")': 0.0, 'flux("LDH")': 0.0384, 'flux("SDH")': 0.07527, 'flux("CITS")': 0.0, 'flux("ME")': 0.13227, 'flux("SCOAS")': 0.07527, 'flux("AKGDH")': 0.07527})
Answer: 22
support("HK") support("LDH") support("G6PDH") support("PDH") support("CS") support("AKGDH") support("SCOAS") support("SDH") support("MDH") support("ME") support("GLNT") support("ALATA") support("LEAK") support("ATPASE") support("AK") support("CK") support("PPRIBP") support("NADPHOX") support("GROWTH")

LP solver calls: 200   Time cplex :  0.0453648567199707


temps d'execution CLPEX  0.11423087120056152

LP Solver output
(0.0, {'flux("GLNS_rev")': 0.0, 'flux("GROWTH")': 0.01, 'flux("PK")': 0.0, 'flux("CK")': 0.25041, 'flux("MDH")': 0.0186, 'flux("GLNT_rev")': 0.0, 'flux("CK_rev")': 0.0, 'flux("ATPASE")': 0.07527, 'flux("GLNS")': 0.0, 'flux("LEAK")': 0.1280091, 'flux("PDH")': 0.0186, 'flux("PGI")': 0.0, 'flux("GLUT")': 0.0, 'flux("LDH_rev")': 0.0, 'flux("TK")': 0.0, 'flux("EP")': 0.0, 'flux("GLNT")': 0.076, 'flux("AK")': 0.0378, 'flux("PGK")': 0.0, 'flux("HK")': 0.02321, 'flux("GLDH")': 0.07527, 'flux("PFK")': 0.0, 'flux("AK_rev")': 0.0, 'flux("CS")': 0.0186, 'flux("PPRIBP")': 0.0378, 'flux("G6PDH")': 0.02292, 'flux("NADPHOX")': 0.04584, 'flux("ALATA")': 0.0, 'flux("RESP")': 0.0, 'flux("LDH")': 0.11367, 'flux("SDH")': 0.07527, 'flux("CITS")': 0.0, 'flux("ME")': 0.13227, 'flux("SCOAS")': 0.07527, 'flux("AKGDH")': 0.07527})
Answer: 23
support("HK") support("LDH") support("G6PDH") support("PDH") support("CS") support("AKGDH") support("SCOAS") support("SDH") support("MDH") support("ME") support("GLNT") support("GLDH") support("LEAK") support("ATPASE") support("AK") support("CK") support("PPRIBP") support("NADPHOX") support("GROWTH")

LP solver calls: 201   Time cplex :  0.04569578170776367


temps d'execution :  0.1153419017791748
temps d'execution :  0.1153421401977539
temps d'execution :  0.11534237861633301
temps d'execution CLPEX  0.11762785911560059

LP Solver output
(0.0, {'flux("GLNS_rev")': 0.0, 'flux("GROWTH")': 0.01, 'flux("PK")': 0.0, 'flux("CK")': 0.25041, 'flux("MDH")': 0.0186, 'flux("GLNT_rev")': 0.0, 'flux("CK_rev")': 0.0, 'flux("ATPASE")': 0.3312882, 'flux("GLNS")': 0.0, 'flux("LEAK")': 0.0, 'flux("PDH")': 0.0186, 'flux("PGI")': 0.0, 'flux("GLUT")': 0.0, 'flux("LDH_rev")': 0.0, 'flux("TK")': 0.0, 'flux("EP")': 0.0, 'flux("GLNT")': 0.076, 'flux("AK")': 0.0378, 'flux("PGK")': 0.0, 'flux("HK")': 0.02321, 'flux("GLDH")': 0.0, 'flux("PFK")': 0.0, 'flux("AK_rev")': 0.0, 'flux("CS")': 0.0186, 'flux("PPRIBP")': 0.0378, 'flux("G6PDH")': 0.02292, 'flux("NADPHOX")': 0.04584, 'flux("ALATA")': 0.07527, 'flux("RESP")': 0.1280091, 'flux("LDH")': 0.0384, 'flux("SDH")': 0.07527, 'flux("CITS")': 0.0, 'flux("ME")': 0.13227, 'flux("SCOAS")': 0.07527, 'flux("AKGDH")': 0.07527})
Answer: 24
support("HK") support("LDH") support("G6PDH") support("PDH") support("CS") support("AKGDH") support("SCOAS") support("SDH") support("MDH") support("ME") support("GLNT") support("ALATA") support("RESP") support("ATPASE") support("AK") support("CK") support("PPRIBP") support("NADPHOX") support("GROWTH")

LP solver calls: 205   Time cplex :  0.04684853553771973


temps d'execution CLPEX  0.12115168571472168

LP Solver output
(0.0, {'flux("GLNS_rev")': 0.0, 'flux("GROWTH")': 0.01, 'flux("PK")': 0.0, 'flux("CK")': 0.25041, 'flux("MDH")': 0.0186, 'flux("GLNT_rev")': 0.0, 'flux("CK_rev")': 0.0, 'flux("ATPASE")': 0.3312882, 'flux("GLNS")': 0.0, 'flux("LEAK")': 0.0, 'flux("PDH")': 0.0186, 'flux("PGI")': 0.0, 'flux("GLUT")': 0.0, 'flux("LDH_rev")': 0.0, 'flux("TK")': 0.0, 'flux("EP")': 0.0, 'flux("GLNT")': 0.076, 'flux("AK")': 0.0378, 'flux("PGK")': 0.0, 'flux("HK")': 0.02321, 'flux("GLDH")': 0.07527, 'flux("PFK")': 0.0, 'flux("AK_rev")': 0.0, 'flux("CS")': 0.0186, 'flux("PPRIBP")': 0.0378, 'flux("G6PDH")': 0.02292, 'flux("NADPHOX")': 0.04584, 'flux("ALATA")': 0.0, 'flux("RESP")': 0.1280091, 'flux("LDH")': 0.11367, 'flux("SDH")': 0.07527, 'flux("CITS")': 0.0, 'flux("ME")': 0.13227, 'flux("SCOAS")': 0.07527, 'flux("AKGDH")': 0.07527})
Answer: 25
support("HK") support("LDH") support("G6PDH") support("PDH") support("CS") support("AKGDH") support("SCOAS") support("SDH") support("MDH") support("ME") support("GLNT") support("GLDH") support("RESP") support("ATPASE") support("AK") support("CK") support("PPRIBP") support("NADPHOX") support("GROWTH")
SATISFIABLE

Models       : 25
Calls        : 1
Time         : 1.839s (Solving: 0.98s 1st Model: 0.38s Unsat: 0.00s)
CPU Time     : 4.114s

Choices      : 616      (Domain: 616)
Conflicts    : 144      (Analyzed: 143)
Restarts     : 2        (Average: 71.50 Last: 132)
Model-Level  : 7.0     
Problems     : 1        (Average Length: 1.00 Splits: 0)
Lemmas       : 143      (Deleted: 0)
  Binary     : 40       (Ratio:  27.97%)
  Ternary    : 21       (Ratio:  14.69%)
  Conflict   : 143      (Average Length:    4.9 Ratio: 100.00%) 
  Loop       : 0        (Average Length:    0.0 Ratio:   0.00%) 
  Other      : 0        (Average Length:    0.0 Ratio:   0.00%) 
Backjumps    : 143      (Average:  3.34 Max:  21 Sum:    478)
  Executed   : 142      (Average:  3.34 Max:  21 Sum:    477 Ratio:  99.79%)
  Bounded    : 1        (Average:  1.00 Max:   1 Sum:      1 Ratio:   0.21%)

Rules        : 372     
  Heuristic  : 35      
Atoms        : 361     
Bodies       : 42       (Original: 41)
Equivalences : 105      (Atom=Atom: 35 Body=Body: 0 Other: 70)
Tight        : Yes
Variables    : 35       (Eliminated:    0 Frozen:   35)
Constraints  : 6        (Binary:  83.3% Ternary:   0.0% Other:  16.7%)


LP solver calls: 206   Time cplex :  0.047162771224975586


Added nogoods for 6 out of 31 partial solutions checked
Total time used by ThermoDGChecker: 0.1223 s
Total time used by CPLEX: 0.12115 s
