M_ACCOA;C00024;1.4000000000000001e-09;2.786e-07
M_ADP;C00008;6.696e-09;1.332504e-06
M_AKG;C00026;1e-09;1.99e-07
M_AMP;C00020;3.0911e-09;6.151289e-07
M_ATP;C00002;7e-08;1.393e-05
M_CIT;C00158;1e-08;1.99e-06
M_CO2;C00011;0.0125;2.4875
M_COA;C00010;2e-10;3.98e-08
M_Cr;C00791;0.16949999999999998;33.7305
M_EALA;C00041;0.0175534773624858;3.4931419951346743
M_EASP;C00049;0.0101379983409594;2.0174616698509205
M_EGLC;C00140;0.03373333333333334;6.712933333333334
M_EGLN;C00064;0.002;0.398
M_EGLU;C00025;0.00857;1.7054299999999998
M_ELAC;C00186;0.2833333333333333;56.38333333333333
M_ENH4;C01342;0.033241382405378876;6.615035098670396
M_F6P;C00085;2.2000000000000003e-09;4.378e-07
M_G6P;C00092;1.6e-09;3.184e-07
M_GAP;C00661;4e-09;7.96e-07
M_GLN;C00064;9e-08;1.791e-05
M_GLU;C00025;2.2e-06;0.0004378
M_MAL;C00149;1.5000000000000002e-08;2.9850000000000002e-06
M_NAD;C00003;6.8780000000000004e-09;1.368722e-06
M_NADH;C00004;8.49e-09;1.6895100000000002e-06
M_NADP;C00006;2.8000000000000003e-09;5.572e-07
M_NADPH;C00004;1.5e-09;2.985e-07
M_O2;C00007;0.00109;0.21691
M_OAA;C00036;1e-08;1.99e-06
M_PEP;C00074;8.800000000000001e-09;1.7512e-06
M_PYR;C00022;2e-08;3.98e-06
M_Pcr;C02305;0.005600000000000001;1.1144
M_Pi;C00009;2e-08;3.98e-06
M_R5P;C00117;5.4e-10;1.0746e-07
M_SCOA;C00091;4e-09;7.96e-07
M_SUC;C00042;8e-10;1.592e-07
M_X5P;C00231;1.5e-09;2.985e-07
M_X;C00000;0.0046;0.9154
