M_ACCOA;C00024;3.5e-08;2.4500000000000004e-07
M_ADP;C00008;1.674e-07;1.1718e-06
M_AKG;C00026;2.5e-08;1.75e-07
M_AMP;C00020;7.72775e-08;5.409425e-07
M_ATP;C00002;1.75e-06;1.225e-05
M_CIT;C00158;2.5e-07;1.75e-06
M_CO2;C00011;0.3125;2.1875
M_COA;C00010;5e-09;3.5e-08
M_Cr;C00791;4.2375;29.662499999999998
M_EALA;C00041;0.3877640535238475;2.714348374666933
M_EASP;C00049;0.26189203344618;1.83324423412326
M_EGLC;C00140;1.9966666666666668;13.976666666666668
M_EGLN;C00064;0.10958333333333332;0.7670833333333332
M_EGLU;C00025;0.22333333333333338;1.5633333333333337
M_ELAC;C00186;6.275;43.925000000000004
M_ENH4;C01342;0.7330436231400604;5.131305361980423
M_F6P;C00085;5.5e-08;3.85e-07
M_G6P;C00092;4e-08;2.8e-07
M_GAP;C00661;1e-07;7e-07
M_GLN;C00064;2.25e-06;1.575e-05
M_GLU;C00025;5.5e-05;0.00038500000000000003
M_MAL;C00149;3.75e-07;2.6250000000000003e-06
M_NAD;C00003;1.7195e-07;1.20365e-06
M_NADH;C00004;2.1225e-07;1.4857500000000001e-06
M_NADP;C00006;7e-08;4.900000000000001e-07
M_NADPH;C00004;3.75e-08;2.625e-07
M_O2;C00007;0.02725;0.19075
M_OAA;C00036;2.5e-07;1.75e-06
M_PEP;C00074;2.2e-07;1.54e-06
M_PYR;C00022;5e-07;3.5e-06
M_Pcr;C02305;0.14;0.9800000000000001
M_Pi;C00009;5e-07;3.5e-06
M_R5P;C00117;1.35e-08;9.45e-08
M_SCOA;C00091;1e-07;7e-07
M_SUC;C00042;2e-08;1.4e-07
M_X5P;C00231;3.75e-08;2.625e-07
M_X;C00000;0.115;0.805
