M_ACCOA;C00024;1.1200000000000001e-07;1.68e-07
M_ADP;C00008;5.3568e-07;8.0352e-07
M_AKG;C00026;8e-08;1.2e-07
M_AMP;C00020;2.47288e-07;3.70932e-07
M_ATP;C00002;5.600000000000001e-06;8.4e-06
M_CIT;C00158;8e-07;1.2e-06
M_CO2;C00011;1.0;1.5
M_COA;C00010;1.6e-08;2.4e-08
M_Cr;C00791;13.56;20.34
M_EALA;C00041;0.5248851510187464;0.7873277265281196
M_EASP;C00049;0.991394722315256;1.487092083472884
M_EGLC;C00140;21.360000000000003;32.04
M_EGLN;C00064;2.7253333333333334;4.087999999999999
M_EGLU;C00025;0.6669333333333336;1.0004000000000002
M_ELAC;C00186;0.18506666666666666;0.27759999999999996
M_ENH4;C01342;0.03087052997088682;0.04630579495633023
M_F6P;C00085;1.7600000000000001e-07;2.64e-07
M_G6P;C00092;1.28e-07;1.92e-07
M_GAP;C00661;3.2e-07;4.8e-07
M_GLN;C00064;7.2000000000000005e-06;1.08e-05
M_GLU;C00025;0.00017600000000000002;0.000264
M_MAL;C00149;1.2000000000000002e-06;1.8e-06
M_NAD;C00003;5.5024e-07;8.2536e-07
M_NADH;C00004;6.792000000000001e-07;1.0188e-06
M_NADP;C00006;2.2400000000000002e-07;3.36e-07
M_NADPH;C00004;1.2e-07;1.8e-07
M_O2;C00007;0.0872;0.1308
M_OAA;C00036;8e-07;1.2e-06
M_PEP;C00074;7.040000000000001e-07;1.056e-06
M_PYR;C00022;1.6e-06;2.4e-06
M_Pcr;C02305;0.44800000000000006;0.672
M_Pi;C00009;1.6e-06;2.4e-06
M_R5P;C00117;4.32e-08;6.48e-08
M_SCOA;C00091;3.2e-07;4.8e-07
M_SUC;C00042;6.4e-08;9.6e-08
M_X5P;C00231;1.2e-07;1.8e-07
M_X;C00000;0.36800000000000005;0.552
