M_ACCOA;C00024;1.1900000000000001e-07;1.61e-07
M_ADP;C00008;5.6916e-07;7.7004e-07
M_AKG;C00026;8.5e-08;1.1499999999999998e-07
M_AMP;C00020;2.6274349999999997e-07;3.5547649999999996e-07
M_ATP;C00002;5.95e-06;8.05e-06
M_CIT;C00158;8.499999999999999e-07;1.1499999999999998e-06
M_CO2;C00011;6.8e-07;9.199999999999999e-07
M_COA;C00010;1.7e-08;2.2999999999999998e-08
M_Cr;C00791;2.55e-06;3.45e-06
M_EALA;C00041;0.816;1.1039999999999999
M_EASP;C00049;1.734;2.3459999999999996
M_EGLC;C00140;22.099999999999998;29.9
M_EGLN;C00064;3.1195;4.2204999999999995
M_EGLU;C00025;0.68;0.9199999999999999
M_ELAC;C00186;0.6375;0.8624999999999999
M_ENH4;C01342;0.17;0.22999999999999998
M_F6P;C00085;1.87e-07;2.53e-07
M_G6P;C00092;1.36e-07;1.8399999999999998e-07
M_GAP;C00661;3.4e-07;4.5999999999999994e-07
M_GLN;C00064;7.65e-06;1.035e-05
M_GLU;C00025;0.000187;0.00025299999999999997
M_MAL;C00149;1.275e-06;1.725e-06
M_NAD;C00003;5.8463e-07;7.909699999999999e-07
M_NADH;C00004;7.2165e-07;9.7635e-07
M_NADP;C00006;2.3800000000000001e-07;3.22e-07
M_NADPH;C00004;1.275e-07;1.725e-07
M_O2;C00007;6.799999999999999e-06;9.199999999999998e-06
M_OAA;C00036;8.499999999999999e-07;1.1499999999999998e-06
M_PEP;C00074;7.48e-07;1.012e-06
M_PYR;C00022;1.6999999999999998e-06;2.2999999999999996e-06
M_Pcr;C02305;8.5e-08;1.1499999999999998e-07
M_Pi;C00009;1.6999999999999998e-06;2.2999999999999996e-06
M_R5P;C00117;4.59e-08;6.21e-08
M_SCOA;C00091;3.4e-07;4.5999999999999994e-07
M_SUC;C00042;6.8e-08;9.199999999999999e-08
M_X5P;C00231;1.275e-07;1.725e-07
M_X;C00000;0.391;0.529
