clingo version 5.6.2
Reading from clingoLP.py ...
Je passe ICI
Début de la thermo
line[2] -1781.6444081489221
float(line[2].rstrip('
')) -1781.6444081489221
line[2] -1395.6292467273274
float(line[2].rstrip('
')) -1395.6292467273274
line[2] -622.1619221256469
float(line[2].rstrip('
')) -622.1619221256469
line[2] -521.0449892833246
float(line[2].rstrip('
')) -521.0449892833246
line[2] -2270.4800916865584
float(line[2].rstrip('
')) -2270.4800916865584
line[2] -954.8038650821667
float(line[2].rstrip('
')) -954.8038650821667
line[2] -386.0000000000019
float(line[2].rstrip('
')) -386.0000000000019
line[2] -1727.9787463436437
float(line[2].rstrip('
')) -1727.9787463436437
line[2] 277.8738483657367
float(line[2].rstrip('
')) 277.8738483657367
line[2] -66.99962570890881
float(line[2].rstrip('
')) -66.99962570890881
line[2] -440.7037923253865
float(line[2].rstrip('
')) -440.7037923253865
line[2] -244.1034774178704
float(line[2].rstrip('
')) -244.1034774178704
line[2] -93.47316959760116
float(line[2].rstrip('
')) -93.47316959760116
line[2] -349.1667977317067
float(line[2].rstrip('
')) -349.1667977317067
line[2] -298.5015020229598
float(line[2].rstrip('
')) -298.5015020229598
line[2] 89.29312212928599
float(line[2].rstrip('
')) 89.29312212928599
line[2] -1291.2323086083798
float(line[2].rstrip('
')) -1291.2323086083798
line[2] -1293.8755834729386
float(line[2].rstrip('
')) -1293.8755834729386
line[2] -1077.3005052258698
float(line[2].rstrip('
')) -1077.3005052258698
line[2] -93.47316959760116
float(line[2].rstrip('
')) -93.47316959760116
line[2] -349.1667977317067
float(line[2].rstrip('
')) -349.1667977317067
line[2] -672.3277467814481
float(line[2].rstrip('
')) -672.3277467814481
line[2] -1143.7174255495095
float(line[2].rstrip('
')) -1143.7174255495095
line[2] -1078.084459875474
float(line[2].rstrip('
')) -1078.084459875474
line[2] -2030.775868056622
float(line[2].rstrip('
')) -2030.775868056622
line[2] -1078.084459875474
float(line[2].rstrip('
')) -1078.084459875474
line[2] 16.399999999865035
float(line[2].rstrip('
')) 16.399999999865035
line[2] -710.862322029855
float(line[2].rstrip('
')) -710.862322029855
line[2] -1189.121616347144
float(line[2].rstrip('
')) -1189.121616347144
line[2] -339.8307842472289
float(line[2].rstrip('
')) -339.8307842472289
line[2] -734.1247792774911
float(line[2].rstrip('
')) -734.1247792774911
line[2] -1056.0794480718703
float(line[2].rstrip('
')) -1056.0794480718703
line[2] -1214.0678353454375
float(line[2].rstrip('
')) -1214.0678353454375
line[2] -2057.961788555722
float(line[2].rstrip('
')) -2057.961788555722
line[2] -509.92900869798234
float(line[2].rstrip('
')) -509.92900869798234
line[2] -1215.322945313571
float(line[2].rstrip('
')) -1215.322945313571
 I nit de la thermo  
Extension ThermoDGCheckerExtension loaded
Dumping reactions/literals dict...
{'HK': 2, 'PGI': 3, 'PFK': 4, 'PGK': 5, 'PK': 6, 'LDH': 7, 'LDH_rev': 8, 'G6PDH': 9, 'EP': 10, 'TK': 11, 'PDH': 12, 'CS': 13, 'CITS': 14, 'AKGDH': 15, 'SCOAS': 16, 'SDH': 17, 'MDH': 18, 'ME': 19, 'GLNT': 20, 'GLNT_rev': 21, 'GLNS': 22, 'GLNS_rev': 23, 'GLDH': 24, 'ALATA': 25, 'GLUT': 26, 'RESP': 27, 'LEAK': 28, 'ATPASE': 29, 'AK': 30, 'AK_rev': 31, 'CK': 32, 'CK_rev': 33, 'PPRIBP': 34, 'NADPHOX': 35, 'GROWTH': 36}
Solving...
temps d'execution :  4.76837158203125e-07
temps d'execution :  9.5367431640625e-07
temps d'execution :  1.430511474609375e-06
temps d'execution :  1.6689300537109375e-06
temps d'execution :  2.1457672119140625e-06
temps d'execution :  2.6226043701171875e-06
temps d'execution :  2.86102294921875e-06
temps d'execution :  3.337860107421875e-06
temps d'execution :  3.814697265625e-06
temps d'execution :  4.291534423828125e-06
temps d'execution :  5.0067901611328125e-06
temps d'execution :  5.4836273193359375e-06
temps d'execution :  5.9604644775390625e-06
temps d'execution :  6.198883056640625e-06
temps d'execution :  6.67572021484375e-06
temps d'execution :  7.152557373046875e-06
temps d'execution :  7.3909759521484375e-06
temps d'execution :  8.106231689453125e-06
temps d'execution :  8.821487426757812e-06
temps d'execution :  9.298324584960938e-06
temps d'execution :  9.775161743164062e-06
temps d'execution :  1.0251998901367188e-05
temps d'execution :  1.049041748046875e-05
temps d'execution :  1.0967254638671875e-05
temps d'execution :  1.1444091796875e-05
temps d'execution :  1.1920928955078125e-05
temps d'execution :  1.2159347534179688e-05
temps d'execution :  1.239776611328125e-05
temps d'execution :  1.2636184692382812e-05
temps d'execution :  1.3113021850585938e-05
temps d'execution :  1.3589859008789062e-05
temps d'execution :  1.3828277587890625e-05
temps d'execution :  1.4543533325195312e-05
temps d'execution :  1.4781951904296875e-05
temps d'execution :  1.5020370483398438e-05
temps d'execution :  1.5497207641601562e-05
temps d'execution :  1.5735626220703125e-05
temps d'execution :  1.621246337890625e-05
temps d'execution :  1.6927719116210938e-05
temps d'execution :  1.7404556274414062e-05
temps d'execution :  1.7881393432617188e-05
temps d'execution :  1.8358230590820312e-05
temps d'execution :  1.8835067749023438e-05
temps d'execution :  1.9073486328125e-05
temps d'execution :  1.9550323486328125e-05
temps d'execution :  1.9788742065429688e-05
temps d'execution :  2.002716064453125e-05
temps d'execution :  2.0503997802734375e-05
temps d'execution :  2.09808349609375e-05
temps d'execution :  2.1219253540039062e-05
temps d'execution :  2.1457672119140625e-05
temps d'execution CLPEX  0.008097171783447266
lp support ['CS', 'LEAK', 'CITS', 'PDH', 'PK', 'PGK', 'HK', 'PFK', 'PGI', 'SDH', 'SCOAS', 'MDH', 'ATPASE', 'AKGDH']
lits for clause [13, 28, 14, 12, 6, 5, 2, 4, 3, 17, 16, 18, 29, 15]
temps d'execution :  0.00821542739868164
temps d'execution :  0.008215904235839844
temps d'execution :  0.008216381072998047
temps d'execution :  0.00821685791015625
temps d'execution :  0.008217096328735352
temps d'execution :  0.008217573165893555
temps d'execution :  0.008217811584472656
temps d'execution :  0.008218050003051758
temps d'execution CLPEX  0.011675596237182617

LP Solver output
(0.0, {'flux("GLNS_rev")': 0.0, 'flux("CS")': 0.01, 'flux("LEAK")': 0.0, 'flux("CITS")': 0.01, 'flux("PDH")': 0.01, 'flux("GROWTH")': 0.0, 'flux("CK")': 0.0, 'flux("LDH_rev")': 0.01, 'flux("GLNS")': 0.0, 'flux("PK")': 0.0, 'flux("LDH")': 0.0, 'flux("G6PDH")': 0.0, 'flux("PGK")': 0.0, 'flux("AK")': 0.0, 'flux("GLNT")': 0.0, 'flux("ALATA")': 0.0, 'flux("HK")': 0.0, 'flux("PFK")': 0.0, 'flux("PGI")': 0.0, 'flux("GLUT")': 0.0, 'flux("SDH")': 0.01, 'flux("SCOAS")': 0.01, 'flux("PPRIBP")': 0.0, 'flux("MDH")': 0.01, 'flux("ATPASE")': 0.0666, 'flux("RESP")': 0.0283, 'flux("EP")': 0.0, 'flux("GLDH")': 0.0, 'flux("NADPHOX")': 0.0, 'flux("CK_rev")': 0.0, 'flux("AKGDH")': 0.01, 'flux("ME")': 0.0, 'flux("GLNT_rev")': 0.0, 'flux("AK_rev")': 0.0, 'flux("TK")': 0.0})
Answer: 1
support("LDH_rev") support("PDH") support("CS") support("CITS") support("AKGDH") support("SCOAS") support("SDH") support("MDH") support("RESP") support("ATPASE")

LP solver calls: 61   Time cplex :  0.012171745300292969


temps d'execution :  0.01181483268737793
temps d'execution :  0.011815309524536133
temps d'execution :  0.011815786361694336
temps d'execution CLPEX  0.015261650085449219

LP Solver output
(0.0, {'flux("GLNS_rev")': 0.0, 'flux("CS")': 0.01, 'flux("LEAK")': 0.0283, 'flux("CITS")': 0.01, 'flux("PDH")': 0.01, 'flux("GROWTH")': 0.0, 'flux("CK")': 0.0, 'flux("LDH_rev")': 0.01, 'flux("GLNS")': 0.0, 'flux("PK")': 0.0, 'flux("LDH")': 0.0, 'flux("G6PDH")': 0.0, 'flux("PGK")': 0.0, 'flux("AK")': 0.0, 'flux("GLNT")': 0.0, 'flux("ALATA")': 0.0, 'flux("HK")': 0.0, 'flux("PFK")': 0.0, 'flux("PGI")': 0.0, 'flux("GLUT")': 0.0, 'flux("SDH")': 0.01, 'flux("SCOAS")': 0.01, 'flux("PPRIBP")': 0.0, 'flux("MDH")': 0.01, 'flux("ATPASE")': 0.01, 'flux("RESP")': 0.0, 'flux("EP")': 0.0, 'flux("GLDH")': 0.0, 'flux("NADPHOX")': 0.0, 'flux("CK_rev")': 0.0, 'flux("AKGDH")': 0.01, 'flux("ME")': 0.0, 'flux("GLNT_rev")': 0.0, 'flux("AK_rev")': 0.0, 'flux("TK")': 0.0})
Answer: 2
support("LDH_rev") support("PDH") support("CS") support("CITS") support("AKGDH") support("SCOAS") support("SDH") support("MDH") support("LEAK") support("ATPASE")

LP solver calls: 65   Time cplex :  0.012932300567626953


temps d'execution :  0.015421628952026367
temps d'execution :  0.015422344207763672
temps d'execution :  0.015422821044921875
temps d'execution :  0.015423297882080078
temps d'execution :  0.01542353630065918
temps d'execution :  0.015424013137817383
temps d'execution CLPEX  0.018302202224731445

LP Solver output
(0.0, {'flux("GLNS_rev")': 0.0, 'flux("CS")': 0.0, 'flux("LEAK")': 0.0, 'flux("CITS")': 0.0, 'flux("PDH")': 0.0, 'flux("GROWTH")': 0.0, 'flux("CK")': 0.01, 'flux("LDH_rev")': 0.0, 'flux("GLNS")': 0.01, 'flux("PK")': 0.0, 'flux("LDH")': 0.0, 'flux("G6PDH")': 0.0, 'flux("PGK")': 0.0, 'flux("AK")': 0.0, 'flux("GLNT")': 0.01, 'flux("ALATA")': 0.0, 'flux("HK")': 0.0, 'flux("PFK")': 0.0, 'flux("PGI")': 0.0, 'flux("GLUT")': 0.01, 'flux("SDH")': 0.0, 'flux("SCOAS")': 0.0, 'flux("PPRIBP")': 0.0, 'flux("MDH")': 0.0, 'flux("ATPASE")': 0.01, 'flux("RESP")': 0.0, 'flux("EP")': 0.0, 'flux("GLDH")': 0.0, 'flux("NADPHOX")': 0.0, 'flux("CK_rev")': 0.0, 'flux("AKGDH")': 0.0, 'flux("ME")': 0.0, 'flux("GLNT_rev")': 0.0, 'flux("AK_rev")': 0.0, 'flux("TK")': 0.0})
Answer: 3
support("GLNT") support("GLNS") support("GLUT") support("ATPASE") support("CK")

LP solver calls: 72   Time cplex :  0.014295339584350586


temps d'execution :  0.01848292350769043
temps d'execution :  0.018483400344848633
temps d'execution :  0.018483877182006836
temps d'execution :  0.01848435401916504
temps d'execution :  0.01848459243774414
temps d'execution CLPEX  0.022025108337402344
lp support ['PK', 'LDH', 'PGK', 'HK', 'PFK', 'PGI', 'ATPASE']
lits for clause [6, 7, 5, 2, 4, 3, 29]
temps d'execution :  0.022284746170043945
temps d'execution :  0.022284984588623047
temps d'execution :  0.02228546142578125
temps d'execution :  0.02228569984436035
temps d'execution :  0.022286176681518555
temps d'execution :  0.022286653518676758
temps d'execution :  0.02228689193725586
temps d'execution :  0.02228713035583496
temps d'execution :  0.022287368774414062
temps d'execution :  0.022287845611572266
temps d'execution :  0.022288084030151367
temps d'execution :  0.02228832244873047
temps d'execution :  0.022288799285888672
temps d'execution :  0.022289514541625977
temps d'execution :  0.02228999137878418
temps d'execution CLPEX  0.025957345962524414
lp support ['PK', 'LDH', 'G6PDH', 'PGK', 'HK', 'PFK', 'ATPASE', 'EP', 'NADPHOX', 'TK']
lits for clause [6, 7, 9, 5, 2, 4, 29, 10, 35, 11]
temps d'execution :  0.026302337646484375
temps d'execution :  0.026302576065063477
temps d'execution :  0.026302814483642578
temps d'execution :  0.02630305290222168
temps d'execution :  0.02630329132080078
temps d'execution :  0.026303768157958984
temps d'execution :  0.026304244995117188
temps d'execution :  0.02630448341369629
temps d'execution :  0.02630472183227539
temps d'execution CLPEX  0.02995443344116211
lp support ['CS', 'CITS', 'PDH', 'PK', 'PGK', 'HK', 'PFK', 'PGI', 'SDH', 'SCOAS', 'MDH', 'ATPASE', 'RESP', 'AKGDH']
lits for clause [13, 14, 12, 6, 5, 2, 4, 3, 17, 16, 18, 29, 27, 15]
temps d'execution :  0.03038811683654785
temps d'execution :  0.030388593673706055
temps d'execution :  0.03038930892944336
temps d'execution :  0.03038954734802246
temps d'execution :  0.030389785766601562
temps d'execution :  0.030390262603759766
temps d'execution :  0.03039073944091797
temps d'execution CLPEX  0.034188270568847656
lp support ['CS', 'LEAK', 'CITS', 'PDH', 'PK', 'G6PDH', 'PGK', 'HK', 'PFK', 'SDH', 'SCOAS', 'MDH', 'ATPASE', 'EP', 'NADPHOX', 'AKGDH', 'TK']
lits for clause [13, 28, 14, 12, 6, 9, 5, 2, 4, 17, 16, 18, 29, 10, 35, 15, 11]
temps d'execution :  0.03470754623413086
temps d'execution :  0.03470778465270996
temps d'execution :  0.03470802307128906
temps d'execution :  0.034708261489868164
temps d'execution CLPEX  0.03892230987548828
lp support ['CS', 'CITS', 'PDH', 'PK', 'G6PDH', 'PGK', 'HK', 'PFK', 'SDH', 'SCOAS', 'MDH', 'ATPASE', 'RESP', 'EP', 'NADPHOX', 'AKGDH', 'TK']
lits for clause [13, 14, 12, 6, 9, 5, 2, 4, 17, 16, 18, 29, 27, 10, 35, 15, 11]
temps d'execution :  0.03953886032104492
temps d'execution :  0.03953909873962402
temps d'execution :  0.03953957557678223
temps d'execution :  0.03954005241394043
temps d'execution :  0.03954052925109863
temps d'execution :  0.039541006088256836
temps d'execution :  0.03954124450683594
temps d'execution :  0.03954172134399414
temps d'execution :  0.03954195976257324
temps d'execution :  0.039542436599731445
temps d'execution CLPEX  0.04226565361022949

LP Solver output
(0.0, {'flux("GLNS_rev")': 0.0, 'flux("CS")': 0.0, 'flux("LEAK")': 0.0133, 'flux("CITS")': 0.0, 'flux("PDH")': 0.0, 'flux("GROWTH")': 0.0, 'flux("CK")': 0.01, 'flux("LDH_rev")': 0.0, 'flux("GLNS")': 0.01, 'flux("PK")': 0.0, 'flux("LDH")': 0.0, 'flux("G6PDH")': 0.0, 'flux("PGK")': 0.0, 'flux("AK")': 0.0, 'flux("GLNT")': 0.01, 'flux("ALATA")': 0.01, 'flux("HK")': 0.0, 'flux("PFK")': 0.0, 'flux("PGI")': 0.0, 'flux("GLUT")': 0.0, 'flux("SDH")': 0.01, 'flux("SCOAS")': 0.01, 'flux("PPRIBP")': 0.0, 'flux("MDH")': 0.0, 'flux("ATPASE")': 0.01, 'flux("RESP")': 0.0, 'flux("EP")': 0.0, 'flux("GLDH")': 0.0, 'flux("NADPHOX")': 0.0, 'flux("CK_rev")': 0.0, 'flux("AKGDH")': 0.01, 'flux("ME")': 0.01, 'flux("GLNT_rev")': 0.0, 'flux("AK_rev")': 0.0, 'flux("TK")': 0.0})
Answer: 4
support("AKGDH") support("SCOAS") support("SDH") support("ME") support("GLNT") support("GLNS") support("ALATA") support("LEAK") support("ATPASE") support("CK")

LP solver calls: 128   Time cplex :  0.027350664138793945


temps d'execution :  0.04290413856506348
temps d'execution :  0.04290437698364258
temps d'execution :  0.04290461540222168
temps d'execution :  0.04290485382080078
temps d'execution :  0.04290509223937988
temps d'execution CLPEX  0.04555654525756836

LP Solver output
(0.0, {'flux("GLNS_rev")': 0.0, 'flux("CS")': 0.0, 'flux("LEAK")': 0.0, 'flux("CITS")': 0.0, 'flux("PDH")': 0.0, 'flux("GROWTH")': 0.0, 'flux("CK")': 0.01, 'flux("LDH_rev")': 0.0, 'flux("GLNS")': 0.01, 'flux("PK")': 0.0, 'flux("LDH")': 0.0, 'flux("G6PDH")': 0.0, 'flux("PGK")': 0.0, 'flux("AK")': 0.0, 'flux("GLNT")': 0.01, 'flux("ALATA")': 0.01, 'flux("HK")': 0.0, 'flux("PFK")': 0.0, 'flux("PGI")': 0.0, 'flux("GLUT")': 0.0, 'flux("SDH")': 0.01, 'flux("SCOAS")': 0.01, 'flux("PPRIBP")': 0.0, 'flux("MDH")': 0.0, 'flux("ATPASE")': 0.0366, 'flux("RESP")': 0.0133, 'flux("EP")': 0.0, 'flux("GLDH")': 0.0, 'flux("NADPHOX")': 0.0, 'flux("CK_rev")': 0.0, 'flux("AKGDH")': 0.01, 'flux("ME")': 0.01, 'flux("GLNT_rev")': 0.0, 'flux("AK_rev")': 0.0, 'flux("TK")': 0.0})
Answer: 5
support("AKGDH") support("SCOAS") support("SDH") support("ME") support("GLNT") support("GLNS") support("ALATA") support("RESP") support("ATPASE") support("CK")

LP solver calls: 134   Time cplex :  0.028606891632080078


temps d'execution :  0.046213388442993164
temps d'execution :  0.04621386528015137
temps d'execution :  0.04621434211730957
temps d'execution :  0.04621458053588867
temps d'execution :  0.04621481895446777
temps d'execution :  0.04621529579162598
temps d'execution :  0.04621553421020508
temps d'execution :  0.04621601104736328
temps d'execution :  0.046216726303100586
temps d'execution :  0.04621720314025879
temps d'execution :  0.04621744155883789
temps d'execution :  0.046217918395996094
temps d'execution :  0.0462183952331543
temps d'execution CLPEX  0.04980874061584473
lp support ['CS', 'CITS', 'PDH', 'GROWTH', 'CK', 'G6PDH', 'AK', 'GLNT', 'HK', 'SDH', 'SCOAS', 'PPRIBP', 'MDH', 'ATPASE', 'RESP', 'GLDH', 'NADPHOX', 'AKGDH', 'ME']
lits for clause [13, 14, 12, 36, 32, 9, 30, 20, 2, 17, 16, 34, 18, 29, 27, 24, 35, 15, 19]
temps d'execution :  0.050660133361816406
temps d'execution CLPEX  0.055850982666015625
lp support ['CS', 'CITS', 'PDH', 'GROWTH', 'CK', 'G6PDH', 'AK', 'GLNT', 'HK', 'GLUT', 'SDH', 'SCOAS', 'PPRIBP', 'MDH', 'ATPASE', 'RESP', 'NADPHOX', 'AKGDH', 'ME']
lits for clause [13, 14, 12, 36, 32, 9, 30, 20, 2, 26, 17, 16, 34, 18, 29, 27, 35, 15, 19]
temps d'execution :  0.05696511268615723
temps d'execution :  0.05696558952331543
temps d'execution :  0.05696606636047363
temps d'execution :  0.05696702003479004
temps d'execution :  0.056967973709106445
temps d'execution :  0.05696868896484375
temps d'execution :  0.056969642639160156
temps d'execution CLPEX  0.0629730224609375

LP Solver output
(0.0, {'flux("GLNS_rev")': 0.0, 'flux("CS")': 0.01, 'flux("LEAK")': 0.0, 'flux("CITS")': 0.01, 'flux("PDH")': 0.01, 'flux("GROWTH")': 0.0, 'flux("CK")': 0.01, 'flux("LDH_rev")': 0.0, 'flux("GLNS")': 0.01, 'flux("PK")': 0.0, 'flux("LDH")': 0.0, 'flux("G6PDH")': 0.0, 'flux("PGK")': 0.0, 'flux("AK")': 0.0, 'flux("GLNT")': 0.01, 'flux("ALATA")': 0.0, 'flux("HK")': 0.0, 'flux("PFK")': 0.0, 'flux("PGI")': 0.0, 'flux("GLUT")': 0.0, 'flux("SDH")': 0.02, 'flux("SCOAS")': 0.02, 'flux("PPRIBP")': 0.0, 'flux("MDH")': 0.01, 'flux("ATPASE")': 0.1032, 'flux("RESP")': 0.0416, 'flux("EP")': 0.0, 'flux("GLDH")': 0.01, 'flux("NADPHOX")': 0.0, 'flux("CK_rev")': 0.0, 'flux("AKGDH")': 0.02, 'flux("ME")': 0.01, 'flux("GLNT_rev")': 0.0, 'flux("AK_rev")': 0.0, 'flux("TK")': 0.0})
Answer: 6
support("PDH") support("CS") support("CITS") support("AKGDH") support("SCOAS") support("SDH") support("MDH") support("ME") support("GLNT") support("GLNS") support("GLDH") support("RESP") support("ATPASE") support("CK")

LP solver calls: 158   Time cplex :  0.03757119178771973


temps d'execution :  0.06413078308105469
temps d'execution CLPEX  0.06890511512756348

LP Solver output
(0.0, {'flux("GLNS_rev")': 0.0, 'flux("CS")': 0.01, 'flux("LEAK")': 0.0416, 'flux("CITS")': 0.01, 'flux("PDH")': 0.01, 'flux("GROWTH")': 0.0, 'flux("CK")': 0.01, 'flux("LDH_rev")': 0.0, 'flux("GLNS")': 0.01, 'flux("PK")': 0.0, 'flux("LDH")': 0.0, 'flux("G6PDH")': 0.0, 'flux("PGK")': 0.0, 'flux("AK")': 0.0, 'flux("GLNT")': 0.01, 'flux("ALATA")': 0.0, 'flux("HK")': 0.0, 'flux("PFK")': 0.0, 'flux("PGI")': 0.0, 'flux("GLUT")': 0.0, 'flux("SDH")': 0.02, 'flux("SCOAS")': 0.02, 'flux("PPRIBP")': 0.0, 'flux("MDH")': 0.01, 'flux("ATPASE")': 0.02, 'flux("RESP")': 0.0, 'flux("EP")': 0.0, 'flux("GLDH")': 0.01, 'flux("NADPHOX")': 0.0, 'flux("CK_rev")': 0.0, 'flux("AKGDH")': 0.02, 'flux("ME")': 0.01, 'flux("GLNT_rev")': 0.0, 'flux("AK_rev")': 0.0, 'flux("TK")': 0.0})
Answer: 7
support("PDH") support("CS") support("CITS") support("AKGDH") support("SCOAS") support("SDH") support("MDH") support("ME") support("GLNT") support("GLNS") support("GLDH") support("LEAK") support("ATPASE") support("CK")

LP solver calls: 160   Time cplex :  0.038208723068237305


temps d'execution :  0.07009720802307129
temps d'execution :  0.0700979232788086
temps d'execution :  0.070098876953125
temps d'execution :  0.0700995922088623
temps d'execution CLPEX  0.07652616500854492
lp support ['GLNS_rev', 'CS', 'CITS', 'PDH', 'GROWTH', 'CK', 'G6PDH', 'AK', 'GLNT', 'HK', 'SDH', 'SCOAS', 'PPRIBP', 'MDH', 'ATPASE', 'RESP', 'NADPHOX', 'AKGDH', 'ME']
lits for clause [23, 13, 14, 12, 36, 32, 9, 30, 20, 2, 17, 16, 34, 18, 29, 27, 35, 15, 19]
temps d'execution :  0.07787370681762695
temps d'execution :  0.07787442207336426
temps d'execution :  0.07787537574768066
temps d'execution CLPEX  0.08376526832580566
lp support ['CS', 'LEAK', 'CITS', 'PDH', 'GROWTH', 'CK', 'G6PDH', 'AK', 'GLNT', 'HK', 'GLUT', 'SDH', 'SCOAS', 'PPRIBP', 'MDH', 'ATPASE', 'NADPHOX', 'AKGDH', 'ME']
lits for clause [13, 28, 14, 12, 36, 32, 9, 30, 20, 2, 26, 17, 16, 34, 18, 29, 35, 15, 19]
temps d'execution :  0.08541512489318848
temps d'execution :  0.08541607856750488
temps d'execution CLPEX  0.09059429168701172
lp support ['GLNS_rev', 'CS', 'LEAK', 'CITS', 'PDH', 'GROWTH', 'CK', 'G6PDH', 'AK', 'GLNT', 'HK', 'SDH', 'SCOAS', 'PPRIBP', 'MDH', 'ATPASE', 'NADPHOX', 'AKGDH', 'ME']
lits for clause [23, 13, 28, 14, 12, 36, 32, 9, 30, 20, 2, 17, 16, 34, 18, 29, 35, 15, 19]
temps d'execution CLPEX  0.09697961807250977
lp support ['CS', 'LEAK', 'CITS', 'PDH', 'GROWTH', 'CK', 'G6PDH', 'AK', 'GLNT', 'HK', 'SDH', 'SCOAS', 'PPRIBP', 'MDH', 'ATPASE', 'GLDH', 'NADPHOX', 'AKGDH', 'ME']
lits for clause [13, 28, 14, 12, 36, 32, 9, 30, 20, 2, 17, 16, 34, 18, 29, 24, 35, 15, 19]
temps d'execution :  0.09911441802978516
temps d'execution :  0.09911513328552246
temps d'execution :  0.09911561012268066
temps d'execution CLPEX  0.10068726539611816
lp support ['CS', 'CITS', 'PDH', 'GROWTH', 'CK', 'G6PDH', 'AK', 'GLNT', 'ALATA', 'HK', 'SDH', 'SCOAS', 'PPRIBP', 'MDH', 'ATPASE', 'RESP', 'NADPHOX', 'AKGDH', 'ME']
lits for clause [13, 14, 12, 36, 32, 9, 30, 20, 25, 2, 17, 16, 34, 18, 29, 27, 35, 15, 19]
temps d'execution CLPEX  0.10426974296569824
lp support ['CS', 'LEAK', 'CITS', 'PDH', 'GROWTH', 'CK', 'G6PDH', 'AK', 'GLNT', 'ALATA', 'HK', 'SDH', 'SCOAS', 'PPRIBP', 'MDH', 'ATPASE', 'NADPHOX', 'AKGDH', 'ME']
lits for clause [13, 28, 14, 12, 36, 32, 9, 30, 20, 25, 2, 17, 16, 34, 18, 29, 35, 15, 19]
temps d'execution :  0.10663294792175293
temps d'execution :  0.10663342475891113
temps d'execution :  0.10663390159606934
temps d'execution :  0.10663414001464844
temps d'execution :  0.10663461685180664
temps d'execution :  0.10663509368896484
temps d'execution :  0.10663652420043945
temps d'execution :  0.10663771629333496
temps d'execution :  0.10663843154907227
temps d'execution :  0.10663914680480957
temps d'execution :  0.10663986206054688
temps d'execution CLPEX  0.10766100883483887

LP Solver output
(0.0, {'flux("GLNS_rev")': 0.0, 'flux("CS")': 0.0, 'flux("LEAK")': 0.0, 'flux("CITS")': 0.0, 'flux("PDH")': 0.0, 'flux("GROWTH")': 0.0, 'flux("CK")': 0.01, 'flux("LDH_rev")': 0.0, 'flux("GLNS")': 0.01, 'flux("PK")': 0.0, 'flux("LDH")': 0.01, 'flux("G6PDH")': 0.0, 'flux("PGK")': 0.0, 'flux("AK")': 0.0, 'flux("GLNT")': 0.01, 'flux("ALATA")': 0.0, 'flux("HK")': 0.0, 'flux("PFK")': 0.0, 'flux("PGI")': 0.0, 'flux("GLUT")': 0.0, 'flux("SDH")': 0.01, 'flux("SCOAS")': 0.01, 'flux("PPRIBP")': 0.0, 'flux("MDH")': 0.0, 'flux("ATPASE")': 0.0366, 'flux("RESP")': 0.0133, 'flux("EP")': 0.0, 'flux("GLDH")': 0.01, 'flux("NADPHOX")': 0.0, 'flux("CK_rev")': 0.0, 'flux("AKGDH")': 0.01, 'flux("ME")': 0.01, 'flux("GLNT_rev")': 0.0, 'flux("AK_rev")': 0.0, 'flux("TK")': 0.0})
Answer: 8
support("LDH") support("AKGDH") support("SCOAS") support("SDH") support("ME") support("GLNT") support("GLNS") support("GLDH") support("RESP") support("ATPASE") support("CK")

LP solver calls: 190   Time cplex :  0.05187678337097168


temps d'execution :  0.11004996299743652
temps d'execution CLPEX  0.1109323501586914

LP Solver output
(0.0, {'flux("GLNS_rev")': 0.0, 'flux("CS")': 0.0, 'flux("LEAK")': 0.0133, 'flux("CITS")': 0.0, 'flux("PDH")': 0.0, 'flux("GROWTH")': 0.0, 'flux("CK")': 0.01, 'flux("LDH_rev")': 0.0, 'flux("GLNS")': 0.01, 'flux("PK")': 0.0, 'flux("LDH")': 0.01, 'flux("G6PDH")': 0.0, 'flux("PGK")': 0.0, 'flux("AK")': 0.0, 'flux("GLNT")': 0.01, 'flux("ALATA")': 0.0, 'flux("HK")': 0.0, 'flux("PFK")': 0.0, 'flux("PGI")': 0.0, 'flux("GLUT")': 0.0, 'flux("SDH")': 0.01, 'flux("SCOAS")': 0.01, 'flux("PPRIBP")': 0.0, 'flux("MDH")': 0.0, 'flux("ATPASE")': 0.01, 'flux("RESP")': 0.0, 'flux("EP")': 0.0, 'flux("GLDH")': 0.01, 'flux("NADPHOX")': 0.0, 'flux("CK_rev")': 0.0, 'flux("AKGDH")': 0.01, 'flux("ME")': 0.01, 'flux("GLNT_rev")': 0.0, 'flux("AK_rev")': 0.0, 'flux("TK")': 0.0})
Answer: 9
support("LDH") support("AKGDH") support("SCOAS") support("SDH") support("ME") support("GLNT") support("GLNS") support("GLDH") support("LEAK") support("ATPASE") support("CK")

LP solver calls: 192   Time cplex :  0.052275896072387695


temps d'execution :  0.11333966255187988
temps d'execution :  0.11334013938903809
temps d'execution :  0.11334037780761719
temps d'execution :  0.11334085464477539
temps d'execution CLPEX  0.11468839645385742
lp support ['GLNS_rev', 'CS', 'LEAK', 'PDH', 'GROWTH', 'CK', 'LDH', 'G6PDH', 'AK', 'GLNT', 'HK', 'PPRIBP', 'MDH', 'NADPHOX', 'ME']
lits for clause [23, 13, 28, 12, 36, 32, 7, 9, 30, 20, 2, 34, 18, 35, 19]
temps d'execution :  0.11726522445678711
temps d'execution CLPEX  0.11825895309448242
lp support ['CS', 'LEAK', 'PDH', 'GROWTH', 'CK', 'LDH', 'G6PDH', 'AK', 'GLNT', 'HK', 'GLUT', 'PPRIBP', 'MDH', 'ATPASE', 'NADPHOX', 'ME']
lits for clause [13, 28, 12, 36, 32, 7, 9, 30, 20, 2, 26, 34, 18, 29, 35, 19]
temps d'execution :  0.12092351913452148
temps d'execution CLPEX  0.12205743789672852
lp support ['CS', 'LEAK', 'PDH', 'GROWTH', 'CK', 'LDH', 'G6PDH', 'AK', 'GLNT', 'HK', 'SDH', 'SCOAS', 'PPRIBP', 'MDH', 'ATPASE', 'GLDH', 'NADPHOX', 'AKGDH', 'ME']
lits for clause [13, 28, 12, 36, 32, 7, 9, 30, 20, 2, 17, 16, 34, 18, 29, 24, 35, 15, 19]
temps d'execution CLPEX  0.1257317066192627
lp support ['CS', 'LEAK', 'PDH', 'GROWTH', 'CK', 'LDH', 'G6PDH', 'AK', 'GLNT', 'ALATA', 'HK', 'SDH', 'SCOAS', 'PPRIBP', 'MDH', 'ATPASE', 'NADPHOX', 'AKGDH', 'ME']
lits for clause [13, 28, 12, 36, 32, 7, 9, 30, 20, 25, 2, 17, 16, 34, 18, 29, 35, 15, 19]
temps d'execution :  0.12862086296081543
temps d'execution :  0.12862133979797363
temps d'execution :  0.12862181663513184
temps d'execution :  0.12862229347229004
temps d'execution CLPEX  0.12939167022705078
lp support ['GLNS_rev', 'CS', 'PDH', 'GROWTH', 'CK', 'LDH', 'G6PDH', 'AK', 'GLNT', 'HK', 'PPRIBP', 'MDH', 'ATPASE', 'RESP', 'NADPHOX', 'ME']
lits for clause [23, 13, 12, 36, 32, 7, 9, 30, 20, 2, 34, 18, 29, 27, 35, 19]
temps d'execution :  0.1324598789215088
temps d'execution :  0.132460355758667
temps d'execution CLPEX  0.13309502601623535
lp support ['CS', 'PDH', 'GROWTH', 'CK', 'LDH', 'G6PDH', 'AK', 'GLNT', 'HK', 'GLUT', 'PPRIBP', 'MDH', 'ATPASE', 'RESP', 'NADPHOX', 'ME']
lits for clause [13, 12, 36, 32, 7, 9, 30, 20, 2, 26, 34, 18, 29, 27, 35, 19]
temps d'execution :  0.13625431060791016
temps d'execution CLPEX  0.18366336822509766
lp support ['CS', 'PDH', 'GROWTH', 'CK', 'LDH', 'G6PDH', 'AK', 'GLNT', 'HK', 'SDH', 'SCOAS', 'PPRIBP', 'MDH', 'ATPASE', 'RESP', 'GLDH', 'NADPHOX', 'AKGDH', 'ME']
lits for clause [13, 12, 36, 32, 7, 9, 30, 20, 2, 17, 16, 34, 18, 29, 27, 24, 35, 15, 19]
temps d'execution CLPEX  0.18744993209838867
lp support ['CS', 'PDH', 'GROWTH', 'CK', 'LDH', 'G6PDH', 'AK', 'GLNT', 'ALATA', 'HK', 'SDH', 'SCOAS', 'PPRIBP', 'MDH', 'ATPASE', 'RESP', 'NADPHOX', 'AKGDH', 'ME']
lits for clause [13, 12, 36, 32, 7, 9, 30, 20, 25, 2, 17, 16, 34, 18, 29, 27, 35, 15, 19]
temps d'execution :  0.19093632698059082
temps d'execution :  0.19093704223632812
SATISFIABLE

Models       : 9
Calls        : 1
Time         : 1.994s (Solving: 1.15s 1st Model: 0.40s Unsat: 0.14s)
CPU Time     : 4.261s

Choices      : 627      (Domain: 627)
Conflicts    : 147      (Analyzed: 146)
Restarts     : 2        (Average: 73.00 Last: 13)
Model-Level  : 10.9    
Problems     : 1        (Average Length: 1.00 Splits: 0)
Lemmas       : 146      (Deleted: 0)
  Binary     : 38       (Ratio:  26.03%)
  Ternary    : 21       (Ratio:  14.38%)
  Conflict   : 146      (Average Length:    4.8 Ratio: 100.00%) 
  Loop       : 0        (Average Length:    0.0 Ratio:   0.00%) 
  Other      : 0        (Average Length:    0.0 Ratio:   0.00%) 
Backjumps    : 146      (Average:  3.28 Max:  21 Sum:    479)
  Executed   : 145      (Average:  3.27 Max:  21 Sum:    478 Ratio:  99.79%)
  Bounded    : 1        (Average:  1.00 Max:   1 Sum:      1 Ratio:   0.21%)

Rules        : 372     
  Heuristic  : 35      
Atoms        : 361     
Bodies       : 42       (Original: 41)
Equivalences : 105      (Atom=Atom: 35 Body=Body: 0 Other: 70)
Tight        : Yes
Variables    : 35       (Eliminated:    0 Frozen:   35)
Constraints  : 6        (Binary:  83.3% Ternary:   0.0% Other:  16.7%)

temps d'execution :  0.19093751907348633
Added nogoods for 13 out of 31 partial solutions checked
Total time used by ThermoDGChecker: 0.19094 s
Total time used by CPLEX: 0.18745 s
