clingo version 5.6.2
Reading from clingoLP.py ...
Je passe ICI
Début de la thermo
line[2] -1781.6444081489221
float(line[2].rstrip('
')) -1781.6444081489221
line[2] -1395.6292467273274
float(line[2].rstrip('
')) -1395.6292467273274
line[2] -622.1619221256469
float(line[2].rstrip('
')) -622.1619221256469
line[2] -521.0449892833246
float(line[2].rstrip('
')) -521.0449892833246
line[2] -2270.4800916865584
float(line[2].rstrip('
')) -2270.4800916865584
line[2] -954.8038650821667
float(line[2].rstrip('
')) -954.8038650821667
line[2] -386.0000000000019
float(line[2].rstrip('
')) -386.0000000000019
line[2] -1727.9787463436437
float(line[2].rstrip('
')) -1727.9787463436437
line[2] 277.8738483657367
float(line[2].rstrip('
')) 277.8738483657367
line[2] -66.99962570890881
float(line[2].rstrip('
')) -66.99962570890881
line[2] -440.7037923253865
float(line[2].rstrip('
')) -440.7037923253865
line[2] -244.1034774178704
float(line[2].rstrip('
')) -244.1034774178704
line[2] -93.47316959760116
float(line[2].rstrip('
')) -93.47316959760116
line[2] -349.1667977317067
float(line[2].rstrip('
')) -349.1667977317067
line[2] -298.5015020229598
float(line[2].rstrip('
')) -298.5015020229598
line[2] 89.29312212928599
float(line[2].rstrip('
')) 89.29312212928599
line[2] -1291.2323086083798
float(line[2].rstrip('
')) -1291.2323086083798
line[2] -1293.8755834729386
float(line[2].rstrip('
')) -1293.8755834729386
line[2] -1077.3005052258698
float(line[2].rstrip('
')) -1077.3005052258698
line[2] -93.47316959760116
float(line[2].rstrip('
')) -93.47316959760116
line[2] -349.1667977317067
float(line[2].rstrip('
')) -349.1667977317067
line[2] -672.3277467814481
float(line[2].rstrip('
')) -672.3277467814481
line[2] -1143.7174255495095
float(line[2].rstrip('
')) -1143.7174255495095
line[2] -1078.084459875474
float(line[2].rstrip('
')) -1078.084459875474
line[2] -2030.775868056622
float(line[2].rstrip('
')) -2030.775868056622
line[2] -1078.084459875474
float(line[2].rstrip('
')) -1078.084459875474
line[2] 16.399999999865035
float(line[2].rstrip('
')) 16.399999999865035
line[2] -710.862322029855
float(line[2].rstrip('
')) -710.862322029855
line[2] -1189.121616347144
float(line[2].rstrip('
')) -1189.121616347144
line[2] -339.8307842472289
float(line[2].rstrip('
')) -339.8307842472289
line[2] -734.1247792774911
float(line[2].rstrip('
')) -734.1247792774911
line[2] -1056.0794480718703
float(line[2].rstrip('
')) -1056.0794480718703
line[2] -1214.0678353454375
float(line[2].rstrip('
')) -1214.0678353454375
line[2] -2057.961788555722
float(line[2].rstrip('
')) -2057.961788555722
line[2] -509.92900869798234
float(line[2].rstrip('
')) -509.92900869798234
line[2] -1215.322945313571
float(line[2].rstrip('
')) -1215.322945313571
 I nit de la thermo  
Extension ThermoDGCheckerExtension loaded
Dumping reactions/literals dict...
{'HK': 2, 'PGI': 3, 'PFK': 4, 'PGK': 5, 'PK': 6, 'LDH': 7, 'LDH_rev': 8, 'G6PDH': 9, 'EP': 10, 'TK': 11, 'PDH': 12, 'CS': 13, 'CITS': 14, 'AKGDH': 15, 'SCOAS': 16, 'SDH': 17, 'MDH': 18, 'ME': 19, 'GLNT': 20, 'GLNT_rev': 21, 'GLNS': 22, 'GLNS_rev': 23, 'GLDH': 24, 'ALATA': 25, 'GLUT': 26, 'RESP': 27, 'LEAK': 28, 'ATPASE': 29, 'AK': 30, 'AK_rev': 31, 'CK': 32, 'CK_rev': 33, 'PPRIBP': 34, 'NADPHOX': 35, 'GROWTH': 36}
Solving...
temps d'execution :  9.5367431640625e-07
temps d'execution :  1.430511474609375e-06
temps d'execution :  1.6689300537109375e-06
temps d'execution :  2.1457672119140625e-06
temps d'execution :  2.384185791015625e-06
temps d'execution :  2.86102294921875e-06
temps d'execution :  3.0994415283203125e-06
temps d'execution :  3.5762786865234375e-06
temps d'execution :  4.0531158447265625e-06
temps d'execution :  4.291534423828125e-06
temps d'execution :  4.76837158203125e-06
temps d'execution :  5.245208740234375e-06
temps d'execution :  5.4836273193359375e-06
temps d'execution :  5.9604644775390625e-06
temps d'execution :  6.198883056640625e-06
temps d'execution :  6.67572021484375e-06
temps d'execution :  7.3909759521484375e-06
temps d'execution :  7.62939453125e-06
temps d'execution :  8.106231689453125e-06
temps d'execution :  8.58306884765625e-06
temps d'execution :  9.059906005859375e-06
temps d'execution :  9.298324584960938e-06
temps d'execution :  9.775161743164062e-06
temps d'execution :  1.049041748046875e-05
temps d'execution :  1.0967254638671875e-05
temps d'execution :  1.1444091796875e-05
temps d'execution :  1.1920928955078125e-05
temps d'execution :  1.239776611328125e-05
temps d'execution :  1.2874603271484375e-05
temps d'execution :  1.33514404296875e-05
temps d'execution :  1.4066696166992188e-05
temps d'execution :  1.4543533325195312e-05
temps d'execution :  1.4781951904296875e-05
temps d'execution :  1.5497207641601562e-05
temps d'execution :  1.5974044799804688e-05
temps d'execution :  1.6450881958007812e-05
temps d'execution :  1.6927719116210938e-05
temps d'execution :  1.7404556274414062e-05
temps d'execution :  1.7881393432617188e-05
temps d'execution :  1.8596649169921875e-05
temps d'execution :  1.8835067749023438e-05
temps d'execution :  1.9311904907226562e-05
temps d'execution :  1.9788742065429688e-05
temps d'execution :  2.002716064453125e-05
temps d'execution :  2.0742416381835938e-05
temps d'execution :  2.1219253540039062e-05
temps d'execution :  2.1696090698242188e-05
temps d'execution :  2.2172927856445312e-05
temps d'execution :  2.2411346435546875e-05
temps d'execution :  2.2649765014648438e-05
temps d'execution :  2.288818359375e-05
temps d'execution CLPEX  0.007750511169433594
lp support ['CITS', 'PDH', 'AKGDH', 'HK', 'PFK', 'LEAK', 'CS', 'SDH', 'PGK', 'ATPASE', 'PGI', 'PK', 'MDH', 'SCOAS']
lits for clause [14, 12, 15, 2, 4, 28, 13, 17, 5, 29, 3, 6, 18, 16]
temps d'execution :  0.007872819900512695
temps d'execution :  0.007873296737670898
temps d'execution :  0.007874011993408203
temps d'execution :  0.007874250411987305
temps d'execution :  0.00787496566772461
temps d'execution :  0.007875204086303711
temps d'execution :  0.007875680923461914
temps d'execution :  0.007876157760620117
temps d'execution CLPEX  0.01163339614868164

LP Solver output
(0.0, {'flux("AK")': 0.0, 'flux("CITS")': 0.01, 'flux("GROWTH")': 0.0, 'flux("G6PDH")': 0.0, 'flux("GLNS_rev")': 0.0, 'flux("PDH")': 0.01, 'flux("ALATA")': 0.0, 'flux("PPRIBP")': 0.0, 'flux("CK")': 0.0, 'flux("AKGDH")': 0.01, 'flux("RESP")': 0.0283, 'flux("GLNT_rev")': 0.0, 'flux("LDH_rev")': 0.01, 'flux("EP")': 0.0, 'flux("TK")': 0.0, 'flux("HK")': 0.0, 'flux("GLDH")': 0.0, 'flux("PFK")': 0.0, 'flux("LEAK")': 0.0, 'flux("NADPHOX")': 0.0, 'flux("CS")': 0.01, 'flux("SDH")': 0.01, 'flux("PGK")': 0.0, 'flux("GLNS")': 0.0, 'flux("ATPASE")': 0.0666, 'flux("CK_rev")': 0.0, 'flux("AK_rev")': 0.0, 'flux("PGI")': 0.0, 'flux("PK")': 0.0, 'flux("GLNT")': 0.0, 'flux("GLUT")': 0.0, 'flux("LDH")': 0.0, 'flux("ME")': 0.0, 'flux("MDH")': 0.01, 'flux("SCOAS")': 0.01})
Answer: 1
support("LDH_rev") support("PDH") support("CS") support("CITS") support("AKGDH") support("SCOAS") support("SDH") support("MDH") support("RESP") support("ATPASE")

LP solver calls: 61   Time cplex :  0.011492013931274414


temps d'execution :  0.011779308319091797
temps d'execution :  0.01177978515625
temps d'execution :  0.011780261993408203
temps d'execution CLPEX  0.015336751937866211

LP Solver output
(0.0, {'flux("AK")': 0.0, 'flux("CITS")': 0.01, 'flux("GROWTH")': 0.0, 'flux("G6PDH")': 0.0, 'flux("GLNS_rev")': 0.0, 'flux("PDH")': 0.01, 'flux("ALATA")': 0.0, 'flux("PPRIBP")': 0.0, 'flux("CK")': 0.0, 'flux("AKGDH")': 0.01, 'flux("RESP")': 0.0, 'flux("GLNT_rev")': 0.0, 'flux("LDH_rev")': 0.01, 'flux("EP")': 0.0, 'flux("TK")': 0.0, 'flux("HK")': 0.0, 'flux("GLDH")': 0.0, 'flux("PFK")': 0.0, 'flux("LEAK")': 0.0283, 'flux("NADPHOX")': 0.0, 'flux("CS")': 0.01, 'flux("SDH")': 0.01, 'flux("PGK")': 0.0, 'flux("GLNS")': 0.0, 'flux("ATPASE")': 0.01, 'flux("CK_rev")': 0.0, 'flux("AK_rev")': 0.0, 'flux("PGI")': 0.0, 'flux("PK")': 0.0, 'flux("GLNT")': 0.0, 'flux("GLUT")': 0.0, 'flux("LDH")': 0.0, 'flux("ME")': 0.0, 'flux("MDH")': 0.01, 'flux("SCOAS")': 0.01})
Answer: 2
support("LDH_rev") support("PDH") support("CS") support("CITS") support("AKGDH") support("SCOAS") support("SDH") support("MDH") support("LEAK") support("ATPASE")

LP solver calls: 65   Time cplex :  0.012246131896972656


temps d'execution :  0.015501737594604492
temps d'execution :  0.015502691268920898
temps d'execution :  0.015503168106079102
temps d'execution :  0.015503644943237305
temps d'execution :  0.015504121780395508
temps d'execution :  0.015504121780395508
temps d'execution CLPEX  0.01851820945739746

LP Solver output
(0.0, {'flux("AK")': 0.0, 'flux("CITS")': 0.0, 'flux("GROWTH")': 0.0, 'flux("G6PDH")': 0.0, 'flux("GLNS_rev")': 0.0, 'flux("PDH")': 0.0, 'flux("ALATA")': 0.0, 'flux("PPRIBP")': 0.0, 'flux("CK")': 0.01, 'flux("AKGDH")': 0.0, 'flux("RESP")': 0.0, 'flux("GLNT_rev")': 0.0, 'flux("LDH_rev")': 0.0, 'flux("EP")': 0.0, 'flux("TK")': 0.0, 'flux("HK")': 0.0, 'flux("GLDH")': 0.0, 'flux("PFK")': 0.0, 'flux("LEAK")': 0.0, 'flux("NADPHOX")': 0.0, 'flux("CS")': 0.0, 'flux("SDH")': 0.0, 'flux("PGK")': 0.0, 'flux("GLNS")': 0.01, 'flux("ATPASE")': 0.01, 'flux("CK_rev")': 0.0, 'flux("AK_rev")': 0.0, 'flux("PGI")': 0.0, 'flux("PK")': 0.0, 'flux("GLNT")': 0.01, 'flux("GLUT")': 0.01, 'flux("LDH")': 0.0, 'flux("ME")': 0.0, 'flux("MDH")': 0.0, 'flux("SCOAS")': 0.0})
Answer: 3
support("GLNT") support("GLNS") support("GLUT") support("ATPASE") support("CK")

LP solver calls: 72   Time cplex :  0.013766765594482422


temps d'execution :  0.018703222274780273
temps d'execution :  0.018703699111938477
temps d'execution :  0.01870417594909668
temps d'execution :  0.018704652786254883
temps d'execution :  0.018705368041992188
temps d'execution CLPEX  0.022156715393066406
lp support ['HK', 'PFK', 'PGK', 'ATPASE', 'PGI', 'PK', 'LDH']
lits for clause [2, 4, 5, 29, 3, 6, 7]
temps d'execution :  0.022431612014770508
temps d'execution :  0.022432327270507812
temps d'execution :  0.022433042526245117
temps d'execution :  0.02243351936340332
temps d'execution :  0.022433757781982422
temps d'execution :  0.022433996200561523
temps d'execution :  0.022434473037719727
temps d'execution :  0.02243494987487793
temps d'execution :  0.022435426712036133
temps d'execution :  0.022435903549194336
temps d'execution :  0.022436141967773438
temps d'execution :  0.02243638038635254
temps d'execution :  0.022436857223510742
temps d'execution :  0.022437334060668945
temps d'execution :  0.02243781089782715
temps d'execution CLPEX  0.026084184646606445
lp support ['G6PDH', 'EP', 'TK', 'HK', 'PFK', 'NADPHOX', 'PGK', 'ATPASE', 'PK', 'LDH']
lits for clause [9, 10, 11, 2, 4, 35, 5, 29, 6, 7]
temps d'execution :  0.026454687118530273
temps d'execution :  0.026455163955688477
temps d'execution :  0.02645564079284668
temps d'execution :  0.026456117630004883
temps d'execution :  0.026456356048583984
temps d'execution :  0.026456832885742188
temps d'execution :  0.02645707130432129
temps d'execution :  0.02645730972290039
temps d'execution :  0.026457786560058594
temps d'execution CLPEX  0.03006577491760254
lp support ['CITS', 'PDH', 'AKGDH', 'RESP', 'HK', 'PFK', 'CS', 'SDH', 'PGK', 'ATPASE', 'PGI', 'PK', 'MDH', 'SCOAS']
lits for clause [14, 12, 15, 27, 2, 4, 13, 17, 5, 29, 3, 6, 18, 16]
temps d'execution :  0.030524253845214844
temps d'execution :  0.030524730682373047
temps d'execution :  0.03052496910095215
temps d'execution :  0.03052544593811035
temps d'execution :  0.030525684356689453
temps d'execution :  0.030526161193847656
temps d'execution :  0.030526399612426758
temps d'execution CLPEX  0.034075260162353516
lp support ['CITS', 'G6PDH', 'PDH', 'AKGDH', 'EP', 'TK', 'HK', 'PFK', 'LEAK', 'NADPHOX', 'CS', 'SDH', 'PGK', 'ATPASE', 'PK', 'MDH', 'SCOAS']
lits for clause [14, 9, 12, 15, 10, 11, 2, 4, 28, 35, 13, 17, 5, 29, 6, 18, 16]
temps d'execution :  0.03462076187133789
temps d'execution :  0.034621477127075195
temps d'execution :  0.0346217155456543
temps d'execution :  0.0346219539642334
temps d'execution CLPEX  0.03818368911743164
lp support ['CITS', 'G6PDH', 'PDH', 'AKGDH', 'RESP', 'EP', 'TK', 'HK', 'PFK', 'NADPHOX', 'CS', 'SDH', 'PGK', 'ATPASE', 'PK', 'MDH', 'SCOAS']
lits for clause [14, 9, 12, 15, 27, 10, 11, 2, 4, 35, 13, 17, 5, 29, 6, 18, 16]
temps d'execution :  0.03881549835205078
temps d'execution :  0.038815975189208984
temps d'execution :  0.038816213607788086
temps d'execution :  0.03881645202636719
temps d'execution :  0.03881669044494629
temps d'execution :  0.03881692886352539
temps d'execution :  0.038817644119262695
temps d'execution :  0.0388181209564209
temps d'execution :  0.0388188362121582
temps d'execution :  0.038819313049316406
temps d'execution CLPEX  0.041474103927612305

LP Solver output
(0.0, {'flux("AK")': 0.0, 'flux("CITS")': 0.0, 'flux("GROWTH")': 0.0, 'flux("G6PDH")': 0.0, 'flux("GLNS_rev")': 0.0, 'flux("PDH")': 0.0, 'flux("ALATA")': 0.01, 'flux("PPRIBP")': 0.0, 'flux("CK")': 0.01, 'flux("AKGDH")': 0.01, 'flux("RESP")': 0.0, 'flux("GLNT_rev")': 0.0, 'flux("LDH_rev")': 0.0, 'flux("EP")': 0.0, 'flux("TK")': 0.0, 'flux("HK")': 0.0, 'flux("GLDH")': 0.0, 'flux("PFK")': 0.0, 'flux("LEAK")': 0.0133, 'flux("NADPHOX")': 0.0, 'flux("CS")': 0.0, 'flux("SDH")': 0.01, 'flux("PGK")': 0.0, 'flux("GLNS")': 0.01, 'flux("ATPASE")': 0.01, 'flux("CK_rev")': 0.0, 'flux("AK_rev")': 0.0, 'flux("PGI")': 0.0, 'flux("PK")': 0.0, 'flux("GLNT")': 0.01, 'flux("GLUT")': 0.0, 'flux("LDH")': 0.0, 'flux("ME")': 0.01, 'flux("MDH")': 0.0, 'flux("SCOAS")': 0.01})
Answer: 4
support("AKGDH") support("SCOAS") support("SDH") support("ME") support("GLNT") support("GLNS") support("ALATA") support("LEAK") support("ATPASE") support("CK")

LP solver calls: 128   Time cplex :  0.025628328323364258


temps d'execution :  0.04212784767150879
temps d'execution :  0.04212808609008789
temps d'execution :  0.042128562927246094
temps d'execution :  0.042128801345825195
temps d'execution :  0.0421290397644043
temps d'execution CLPEX  0.04459381103515625

LP Solver output
(0.0, {'flux("AK")': 0.0, 'flux("CITS")': 0.0, 'flux("GROWTH")': 0.0, 'flux("G6PDH")': 0.0, 'flux("GLNS_rev")': 0.0, 'flux("PDH")': 0.0, 'flux("ALATA")': 0.01, 'flux("PPRIBP")': 0.0, 'flux("CK")': 0.01, 'flux("AKGDH")': 0.01, 'flux("RESP")': 0.0133, 'flux("GLNT_rev")': 0.0, 'flux("LDH_rev")': 0.0, 'flux("EP")': 0.0, 'flux("TK")': 0.0, 'flux("HK")': 0.0, 'flux("GLDH")': 0.0, 'flux("PFK")': 0.0, 'flux("LEAK")': 0.0, 'flux("NADPHOX")': 0.0, 'flux("CS")': 0.0, 'flux("SDH")': 0.01, 'flux("PGK")': 0.0, 'flux("GLNS")': 0.01, 'flux("ATPASE")': 0.0366, 'flux("CK_rev")': 0.0, 'flux("AK_rev")': 0.0, 'flux("PGI")': 0.0, 'flux("PK")': 0.0, 'flux("GLNT")': 0.01, 'flux("GLUT")': 0.0, 'flux("LDH")': 0.0, 'flux("ME")': 0.01, 'flux("MDH")': 0.0, 'flux("SCOAS")': 0.01})
Answer: 5
support("AKGDH") support("SCOAS") support("SDH") support("ME") support("GLNT") support("GLNS") support("ALATA") support("RESP") support("ATPASE") support("CK")

LP solver calls: 134   Time cplex :  0.026810407638549805


temps d'execution :  0.04526638984680176
temps d'execution :  0.04526686668395996
temps d'execution :  0.045267343521118164
temps d'execution :  0.045267581939697266
temps d'execution :  0.04526782035827637
temps d'execution :  0.04526805877685547
temps d'execution :  0.04526829719543457
temps d'execution :  0.04526877403259277
temps d'execution :  0.04526925086975098
temps d'execution :  0.04526972770690918
temps d'execution :  0.04526996612548828
temps d'execution :  0.04527020454406738
temps d'execution :  0.04527091979980469
temps d'execution CLPEX  0.04852724075317383

LP Solver output
(0.0, {'flux("AK")': 0.0378, 'flux("CITS")': 0.11367, 'flux("GROWTH")': 0.01, 'flux("G6PDH")': 0.02292, 'flux("GLNS_rev")': 0.0, 'flux("PDH")': 0.13227, 'flux("ALATA")': 0.0, 'flux("PPRIBP")': 0.0378, 'flux("CK")': 0.25041, 'flux("AKGDH")': 0.18894, 'flux("RESP")': 0.4496952, 'flux("GLNT_rev")': 0.0, 'flux("LDH_rev")': 0.0, 'flux("EP")': 0.0, 'flux("TK")': 0.0, 'flux("HK")': 0.02321, 'flux("GLDH")': 0.07527, 'flux("PFK")': 0.0, 'flux("LEAK")': 0.0, 'flux("NADPHOX")': 0.04584, 'flux("CS")': 0.13227, 'flux("SDH")': 0.18894, 'flux("PGK")': 0.0, 'flux("GLNS")': 0.0, 'flux("ATPASE")': 1.0883304, 'flux("CK_rev")': 0.0, 'flux("AK_rev")': 0.0, 'flux("PGI")': 0.0, 'flux("PK")': 0.0, 'flux("GLNT")': 0.076, 'flux("GLUT")': 0.0, 'flux("LDH")': 0.0, 'flux("ME")': 0.13227, 'flux("MDH")': 0.13227, 'flux("SCOAS")': 0.18894})
Answer: 6
support("HK") support("G6PDH") support("PDH") support("CS") support("CITS") support("AKGDH") support("SCOAS") support("SDH") support("MDH") support("ME") support("GLNT") support("GLDH") support("RESP") support("ATPASE") support("AK") support("CK") support("PPRIBP") support("NADPHOX") support("GROWTH")

LP solver calls: 148   Time cplex :  0.03092217445373535


temps d'execution :  0.049223899841308594
temps d'execution CLPEX  0.05204510688781738

LP Solver output
(0.0, {'flux("AK")': 0.0378, 'flux("CITS")': 0.0384, 'flux("GROWTH")': 0.01, 'flux("G6PDH")': 0.02292, 'flux("GLNS_rev")': 0.0, 'flux("PDH")': 0.057, 'flux("ALATA")': 0.0, 'flux("PPRIBP")': 0.0378, 'flux("CK")': 0.25041, 'flux("AKGDH")': 0.0384, 'flux("RESP")': 0.136572, 'flux("GLNT_rev")': 0.0, 'flux("LDH_rev")': 0.0, 'flux("EP")': 0.0, 'flux("TK")': 0.0, 'flux("HK")': 0.02321, 'flux("GLDH")': 0.0, 'flux("PFK")': 0.0, 'flux("LEAK")': 0.0, 'flux("NADPHOX")': 0.04584, 'flux("CS")': 0.057, 'flux("SDH")': 0.0384, 'flux("PGK")': 0.0, 'flux("GLNS")': 0.0, 'flux("ATPASE")': 0.386814, 'flux("CK_rev")': 0.0, 'flux("AK_rev")': 0.0, 'flux("PGI")': 0.0, 'flux("PK")': 0.0, 'flux("GLNT")': 0.076, 'flux("GLUT")': 0.07527, 'flux("LDH")': 0.0, 'flux("ME")': 0.057, 'flux("MDH")': 0.057, 'flux("SCOAS")': 0.0384})
Answer: 7
support("HK") support("G6PDH") support("PDH") support("CS") support("CITS") support("AKGDH") support("SCOAS") support("SDH") support("MDH") support("ME") support("GLNT") support("GLUT") support("RESP") support("ATPASE") support("AK") support("CK") support("PPRIBP") support("NADPHOX") support("GROWTH")

LP solver calls: 150   Time cplex :  0.03150606155395508


temps d'execution :  0.052759647369384766
temps d'execution :  0.05275988578796387
temps d'execution :  0.05276036262512207
temps d'execution :  0.05276083946228027
temps d'execution CLPEX  0.05701446533203125

LP Solver output
(0.0, {'flux("AK")': 0.0, 'flux("CITS")': 0.01, 'flux("GROWTH")': 0.0, 'flux("G6PDH")': 0.0, 'flux("GLNS_rev")': 0.0, 'flux("PDH")': 0.01, 'flux("ALATA")': 0.0, 'flux("PPRIBP")': 0.0, 'flux("CK")': 0.01, 'flux("AKGDH")': 0.02, 'flux("RESP")': 0.0, 'flux("GLNT_rev")': 0.0, 'flux("LDH_rev")': 0.0, 'flux("EP")': 0.0, 'flux("TK")': 0.0, 'flux("HK")': 0.0, 'flux("GLDH")': 0.01, 'flux("PFK")': 0.0, 'flux("LEAK")': 0.0416, 'flux("NADPHOX")': 0.0, 'flux("CS")': 0.01, 'flux("SDH")': 0.02, 'flux("PGK")': 0.0, 'flux("GLNS")': 0.01, 'flux("ATPASE")': 0.02, 'flux("CK_rev")': 0.0, 'flux("AK_rev")': 0.0, 'flux("PGI")': 0.0, 'flux("PK")': 0.0, 'flux("GLNT")': 0.01, 'flux("GLUT")': 0.0, 'flux("LDH")': 0.0, 'flux("ME")': 0.01, 'flux("MDH")': 0.01, 'flux("SCOAS")': 0.02})
Answer: 8
support("PDH") support("CS") support("CITS") support("AKGDH") support("SCOAS") support("SDH") support("MDH") support("ME") support("GLNT") support("GLNS") support("GLDH") support("LEAK") support("ATPASE") support("CK")

LP solver calls: 155   Time cplex :  0.03271317481994629


temps d'execution CLPEX  0.060549020767211914

LP Solver output
(0.0, {'flux("AK")': 0.0, 'flux("CITS")': 0.01, 'flux("GROWTH")': 0.0, 'flux("G6PDH")': 0.0, 'flux("GLNS_rev")': 0.0, 'flux("PDH")': 0.01, 'flux("ALATA")': 0.0, 'flux("PPRIBP")': 0.0, 'flux("CK")': 0.01, 'flux("AKGDH")': 0.02, 'flux("RESP")': 0.0416, 'flux("GLNT_rev")': 0.0, 'flux("LDH_rev")': 0.0, 'flux("EP")': 0.0, 'flux("TK")': 0.0, 'flux("HK")': 0.0, 'flux("GLDH")': 0.01, 'flux("PFK")': 0.0, 'flux("LEAK")': 0.0, 'flux("NADPHOX")': 0.0, 'flux("CS")': 0.01, 'flux("SDH")': 0.02, 'flux("PGK")': 0.0, 'flux("GLNS")': 0.01, 'flux("ATPASE")': 0.1032, 'flux("CK_rev")': 0.0, 'flux("AK_rev")': 0.0, 'flux("PGI")': 0.0, 'flux("PK")': 0.0, 'flux("GLNT")': 0.01, 'flux("GLUT")': 0.0, 'flux("LDH")': 0.0, 'flux("ME")': 0.01, 'flux("MDH")': 0.01, 'flux("SCOAS")': 0.02})
Answer: 9
support("PDH") support("CS") support("CITS") support("AKGDH") support("SCOAS") support("SDH") support("MDH") support("ME") support("GLNT") support("GLNS") support("GLDH") support("RESP") support("ATPASE") support("CK")

LP solver calls: 156   Time cplex :  0.03289794921875


temps d'execution :  0.06130385398864746
temps d'execution :  0.061304569244384766
temps d'execution :  0.06130504608154297
temps d'execution :  0.06130552291870117
temps d'execution :  0.06130623817443848
temps d'execution CLPEX  0.06531357765197754

LP Solver output
(0.0, {'flux("AK")': 0.5178082192, 'flux("CITS")': 0.5260273973, 'flux("GROWTH")': 0.1369863014, 'flux("G6PDH")': 0.3139726027, 'flux("GLNS_rev")': 1.0310958904, 'flux("PDH")': 0.7808219178, 'flux("ALATA")': 0.0, 'flux("PPRIBP")': 0.5178082192, 'flux("CK")': 2.3991780822, 'flux("AKGDH")': 0.5260273973, 'flux("RESP")': 0.0, 'flux("GLNT_rev")': 0.0, 'flux("LDH_rev")': 0.0, 'flux("EP")': 0.0, 'flux("TK")': 0.0, 'flux("HK")': 0.3179452055, 'flux("GLDH")': 0.0, 'flux("PFK")': 0.0, 'flux("LEAK")': 1.8708493151, 'flux("NADPHOX")': 0.6279452055, 'flux("CS")': 0.7808219178, 'flux("SDH")': 0.5260273973, 'flux("PGK")': 0.0, 'flux("GLNS")': 0.0, 'flux("ATPASE")': 0.5260273973, 'flux("CK_rev")': 0.0, 'flux("AK_rev")': 0.0, 'flux("PGI")': 0.0, 'flux("PK")': 0.0, 'flux("GLNT")': 0.01, 'flux("GLUT")': 0.0, 'flux("LDH")': 0.0, 'flux("ME")': 0.7808219178, 'flux("MDH")': 0.7808219178, 'flux("SCOAS")': 0.5260273973})
Answer: 10
support("HK") support("G6PDH") support("PDH") support("CS") support("CITS") support("AKGDH") support("SCOAS") support("SDH") support("MDH") support("ME") support("GLNT") support("GLNS_rev") support("LEAK") support("ATPASE") support("AK") support("CK") support("PPRIBP") support("NADPHOX") support("GROWTH")

LP solver calls: 162   Time cplex :  0.034934282302856445


temps d'execution CLPEX  0.06905484199523926

LP Solver output
(0.0, {'flux("AK")': 0.0378, 'flux("CITS")': 0.0384, 'flux("GROWTH")': 0.01, 'flux("G6PDH")': 0.02292, 'flux("GLNS_rev")': 0.0, 'flux("PDH")': 0.057, 'flux("ALATA")': 0.0, 'flux("PPRIBP")': 0.0378, 'flux("CK")': 0.25041, 'flux("AKGDH")': 0.0384, 'flux("RESP")': 0.0, 'flux("GLNT_rev")': 0.0, 'flux("LDH_rev")': 0.0, 'flux("EP")': 0.0, 'flux("TK")': 0.0, 'flux("HK")': 0.02321, 'flux("GLDH")': 0.0, 'flux("PFK")': 0.0, 'flux("LEAK")': 0.136572, 'flux("NADPHOX")': 0.04584, 'flux("CS")': 0.057, 'flux("SDH")': 0.0384, 'flux("PGK")': 0.0, 'flux("GLNS")': 0.0, 'flux("ATPASE")': 0.11367, 'flux("CK_rev")': 0.0, 'flux("AK_rev")': 0.0, 'flux("PGI")': 0.0, 'flux("PK")': 0.0, 'flux("GLNT")': 0.076, 'flux("GLUT")': 0.07527, 'flux("LDH")': 0.0, 'flux("ME")': 0.057, 'flux("MDH")': 0.057, 'flux("SCOAS")': 0.0384})
Answer: 11
support("HK") support("G6PDH") support("PDH") support("CS") support("CITS") support("AKGDH") support("SCOAS") support("SDH") support("MDH") support("ME") support("GLNT") support("GLUT") support("LEAK") support("ATPASE") support("AK") support("CK") support("PPRIBP") support("NADPHOX") support("GROWTH")

LP solver calls: 163   Time cplex :  0.035338640213012695


temps d'execution CLPEX  0.07270932197570801

LP Solver output
(0.0, {'flux("AK")': 0.5178082192, 'flux("CITS")': 0.5260273973, 'flux("GROWTH")': 0.1369863014, 'flux("G6PDH")': 0.3139726027, 'flux("GLNS_rev")': 1.0310958904, 'flux("PDH")': 0.7808219178, 'flux("ALATA")': 0.0, 'flux("PPRIBP")': 0.5178082192, 'flux("CK")': 2.3991780822, 'flux("AKGDH")': 0.5260273973, 'flux("RESP")': 1.8708493151, 'flux("GLNT_rev")': 0.0, 'flux("LDH_rev")': 0.0, 'flux("EP")': 0.0, 'flux("TK")': 0.0, 'flux("HK")': 0.3179452055, 'flux("GLDH")': 0.0, 'flux("PFK")': 0.0, 'flux("LEAK")': 0.0, 'flux("NADPHOX")': 0.6279452055, 'flux("CS")': 0.7808219178, 'flux("SDH")': 0.5260273973, 'flux("PGK")': 0.0, 'flux("GLNS")': 0.0, 'flux("ATPASE")': 4.2677260274, 'flux("CK_rev")': 0.0, 'flux("AK_rev")': 0.0, 'flux("PGI")': 0.0, 'flux("PK")': 0.0, 'flux("GLNT")': 0.01, 'flux("GLUT")': 0.0, 'flux("LDH")': 0.0, 'flux("ME")': 0.7808219178, 'flux("MDH")': 0.7808219178, 'flux("SCOAS")': 0.5260273973})
Answer: 12
support("HK") support("G6PDH") support("PDH") support("CS") support("CITS") support("AKGDH") support("SCOAS") support("SDH") support("MDH") support("ME") support("GLNT") support("GLNS_rev") support("RESP") support("ATPASE") support("AK") support("CK") support("PPRIBP") support("NADPHOX") support("GROWTH")

LP solver calls: 164   Time cplex :  0.035694122314453125


temps d'execution CLPEX  0.07642483711242676

LP Solver output
(0.0, {'flux("AK")': 0.0378, 'flux("CITS")': 0.11367, 'flux("GROWTH")': 0.01, 'flux("G6PDH")': 0.02292, 'flux("GLNS_rev")': 0.0, 'flux("PDH")': 0.13227, 'flux("ALATA")': 0.0, 'flux("PPRIBP")': 0.0378, 'flux("CK")': 0.25041, 'flux("AKGDH")': 0.18894, 'flux("RESP")': 0.0, 'flux("GLNT_rev")': 0.0, 'flux("LDH_rev")': 0.0, 'flux("EP")': 0.0, 'flux("TK")': 0.0, 'flux("HK")': 0.02321, 'flux("GLDH")': 0.07527, 'flux("PFK")': 0.0, 'flux("LEAK")': 0.4496952, 'flux("NADPHOX")': 0.04584, 'flux("CS")': 0.13227, 'flux("SDH")': 0.18894, 'flux("PGK")': 0.0, 'flux("GLNS")': 0.0, 'flux("ATPASE")': 0.18894, 'flux("CK_rev")': 0.0, 'flux("AK_rev")': 0.0, 'flux("PGI")': 0.0, 'flux("PK")': 0.0, 'flux("GLNT")': 0.076, 'flux("GLUT")': 0.0, 'flux("LDH")': 0.0, 'flux("ME")': 0.13227, 'flux("MDH")': 0.13227, 'flux("SCOAS")': 0.18894})
Answer: 13
support("HK") support("G6PDH") support("PDH") support("CS") support("CITS") support("AKGDH") support("SCOAS") support("SDH") support("MDH") support("ME") support("GLNT") support("GLDH") support("LEAK") support("ATPASE") support("AK") support("CK") support("PPRIBP") support("NADPHOX") support("GROWTH")

LP solver calls: 165   Time cplex :  0.036026954650878906


temps d'execution :  0.07725977897644043
temps d'execution CLPEX  0.08098387718200684

LP Solver output
(0.0, {'flux("AK")': 0.0378, 'flux("CITS")': 0.0384, 'flux("GROWTH")': 0.01, 'flux("G6PDH")': 0.02292, 'flux("GLNS_rev")': 0.0, 'flux("PDH")': 0.057, 'flux("ALATA")': 0.07527, 'flux("PPRIBP")': 0.0378, 'flux("CK")': 0.25041, 'flux("AKGDH")': 0.11367, 'flux("RESP")': 0.2366811, 'flux("GLNT_rev")': 0.0, 'flux("LDH_rev")': 0.0, 'flux("EP")': 0.0, 'flux("TK")': 0.0, 'flux("HK")': 0.02321, 'flux("GLDH")': 0.0, 'flux("PFK")': 0.0, 'flux("LEAK")': 0.0, 'flux("NADPHOX")': 0.04584, 'flux("CS")': 0.057, 'flux("SDH")': 0.11367, 'flux("PGK")': 0.0, 'flux("GLNS")': 0.0, 'flux("ATPASE")': 0.5870322, 'flux("CK_rev")': 0.0, 'flux("AK_rev")': 0.0, 'flux("PGI")': 0.0, 'flux("PK")': 0.0, 'flux("GLNT")': 0.076, 'flux("GLUT")': 0.0, 'flux("LDH")': 0.0, 'flux("ME")': 0.13227, 'flux("MDH")': 0.057, 'flux("SCOAS")': 0.11367})
Answer: 14
support("HK") support("G6PDH") support("PDH") support("CS") support("CITS") support("AKGDH") support("SCOAS") support("SDH") support("MDH") support("ME") support("GLNT") support("ALATA") support("RESP") support("ATPASE") support("AK") support("CK") support("PPRIBP") support("NADPHOX") support("GROWTH")

LP solver calls: 167   Time cplex :  0.036681413650512695


temps d'execution CLPEX  0.08594298362731934

LP Solver output
(0.0, {'flux("AK")': 0.0378, 'flux("CITS")': 0.0384, 'flux("GROWTH")': 0.01, 'flux("G6PDH")': 0.02292, 'flux("GLNS_rev")': 0.0, 'flux("PDH")': 0.057, 'flux("ALATA")': 0.07527, 'flux("PPRIBP")': 0.0378, 'flux("CK")': 0.25041, 'flux("AKGDH")': 0.11367, 'flux("RESP")': 0.0, 'flux("GLNT_rev")': 0.0, 'flux("LDH_rev")': 0.0, 'flux("EP")': 0.0, 'flux("TK")': 0.0, 'flux("HK")': 0.02321, 'flux("GLDH")': 0.0, 'flux("PFK")': 0.0, 'flux("LEAK")': 0.2366811, 'flux("NADPHOX")': 0.04584, 'flux("CS")': 0.057, 'flux("SDH")': 0.11367, 'flux("PGK")': 0.0, 'flux("GLNS")': 0.0, 'flux("ATPASE")': 0.11367, 'flux("CK_rev")': 0.0, 'flux("AK_rev")': 0.0, 'flux("PGI")': 0.0, 'flux("PK")': 0.0, 'flux("GLNT")': 0.076, 'flux("GLUT")': 0.0, 'flux("LDH")': 0.0, 'flux("ME")': 0.13227, 'flux("MDH")': 0.057, 'flux("SCOAS")': 0.11367})
Answer: 15
support("HK") support("G6PDH") support("PDH") support("CS") support("CITS") support("AKGDH") support("SCOAS") support("SDH") support("MDH") support("ME") support("GLNT") support("ALATA") support("LEAK") support("ATPASE") support("AK") support("CK") support("PPRIBP") support("NADPHOX") support("GROWTH")

LP solver calls: 168   Time cplex :  0.03702425956726074


temps d'execution :  0.08681654930114746
temps d'execution :  0.08681702613830566
temps d'execution :  0.08681726455688477
temps d'execution :  0.08681750297546387
temps d'execution :  0.08681797981262207
temps d'execution :  0.08681821823120117
temps d'execution :  0.08681845664978027
temps d'execution :  0.08681893348693848
temps d'execution CLPEX  0.0894618034362793

LP Solver output
(0.0, {'flux("AK")': 0.0, 'flux("CITS")': 0.0, 'flux("GROWTH")': 0.0, 'flux("G6PDH")': 0.0, 'flux("GLNS_rev")': 0.0, 'flux("PDH")': 0.0, 'flux("ALATA")': 0.0, 'flux("PPRIBP")': 0.0, 'flux("CK")': 0.01, 'flux("AKGDH")': 0.01, 'flux("RESP")': 0.0133, 'flux("GLNT_rev")': 0.0, 'flux("LDH_rev")': 0.0, 'flux("EP")': 0.0, 'flux("TK")': 0.0, 'flux("HK")': 0.0, 'flux("GLDH")': 0.01, 'flux("PFK")': 0.0, 'flux("LEAK")': 0.0, 'flux("NADPHOX")': 0.0, 'flux("CS")': 0.0, 'flux("SDH")': 0.01, 'flux("PGK")': 0.0, 'flux("GLNS")': 0.01, 'flux("ATPASE")': 0.0366, 'flux("CK_rev")': 0.0, 'flux("AK_rev")': 0.0, 'flux("PGI")': 0.0, 'flux("PK")': 0.0, 'flux("GLNT")': 0.01, 'flux("GLUT")': 0.0, 'flux("LDH")': 0.01, 'flux("ME")': 0.01, 'flux("MDH")': 0.0, 'flux("SCOAS")': 0.01})
Answer: 16
support("LDH") support("AKGDH") support("SCOAS") support("SDH") support("ME") support("GLNT") support("GLNS") support("GLDH") support("RESP") support("ATPASE") support("CK")

LP solver calls: 177   Time cplex :  0.03946352005004883


temps d'execution :  0.0903630256652832
temps d'execution :  0.0903632640838623
temps d'execution CLPEX  0.09272336959838867

LP Solver output
(0.0, {'flux("AK")': 0.0, 'flux("CITS")': 0.0, 'flux("GROWTH")': 0.0, 'flux("G6PDH")': 0.0, 'flux("GLNS_rev")': 0.0, 'flux("PDH")': 0.0, 'flux("ALATA")': 0.0, 'flux("PPRIBP")': 0.0, 'flux("CK")': 0.01, 'flux("AKGDH")': 0.01, 'flux("RESP")': 0.0, 'flux("GLNT_rev")': 0.0, 'flux("LDH_rev")': 0.0, 'flux("EP")': 0.0, 'flux("TK")': 0.0, 'flux("HK")': 0.0, 'flux("GLDH")': 0.01, 'flux("PFK")': 0.0, 'flux("LEAK")': 0.0133, 'flux("NADPHOX")': 0.0, 'flux("CS")': 0.0, 'flux("SDH")': 0.01, 'flux("PGK")': 0.0, 'flux("GLNS")': 0.01, 'flux("ATPASE")': 0.01, 'flux("CK_rev")': 0.0, 'flux("AK_rev")': 0.0, 'flux("PGI")': 0.0, 'flux("PK")': 0.0, 'flux("GLNT")': 0.01, 'flux("GLUT")': 0.0, 'flux("LDH")': 0.01, 'flux("ME")': 0.01, 'flux("MDH")': 0.0, 'flux("SCOAS")': 0.01})
Answer: 17
support("LDH") support("AKGDH") support("SCOAS") support("SDH") support("ME") support("GLNT") support("GLNS") support("GLDH") support("LEAK") support("ATPASE") support("CK")

LP solver calls: 180   Time cplex :  0.03996872901916504


temps d'execution :  0.0936434268951416
temps d'execution :  0.0936439037322998
temps d'execution :  0.09364438056945801
temps d'execution :  0.09364461898803711
temps d'execution :  0.09364485740661621
temps d'execution :  0.09364557266235352
temps d'execution :  0.09364581108093262
temps d'execution :  0.09364628791809082
temps d'execution CLPEX  0.09770750999450684

LP Solver output
(0.0, {'flux("AK")': 0.5178082192, 'flux("CITS")': 0.0, 'flux("GROWTH")': 0.1369863014, 'flux("G6PDH")': 0.3139726027, 'flux("GLNS_rev")': 1.0310958904, 'flux("PDH")': 0.2547945205, 'flux("ALATA")': 0.0, 'flux("PPRIBP")': 0.5178082192, 'flux("CK")': 2.3991780822, 'flux("AKGDH")': 0.0, 'flux("RESP")': 0.3821917808, 'flux("GLNT_rev")': 0.0, 'flux("LDH_rev")': 0.0, 'flux("EP")': 0.0, 'flux("TK")': 0.0, 'flux("HK")': 0.3179452055, 'flux("GLDH")': 0.0, 'flux("PFK")': 0.0, 'flux("LEAK")': 0.0, 'flux("NADPHOX")': 0.6279452055, 'flux("CS")': 0.2547945205, 'flux("SDH")': 0.0, 'flux("PGK")': 0.0, 'flux("GLNS")': 0.0, 'flux("ATPASE")': 0.7643835616, 'flux("CK_rev")': 0.0, 'flux("AK_rev")': 0.0, 'flux("PGI")': 0.0, 'flux("PK")': 0.0, 'flux("GLNT")': 0.01, 'flux("GLUT")': 0.0, 'flux("LDH")': 0.5260273973, 'flux("ME")': 0.7808219178, 'flux("MDH")': 0.2547945205, 'flux("SCOAS")': 0.0})
Answer: 18
support("HK") support("LDH") support("G6PDH") support("PDH") support("CS") support("MDH") support("ME") support("GLNT") support("GLNS_rev") support("RESP") support("ATPASE") support("AK") support("CK") support("PPRIBP") support("NADPHOX") support("GROWTH")

LP solver calls: 189   Time cplex :  0.04281878471374512


temps d'execution :  0.09865093231201172
temps d'execution CLPEX  0.10119175910949707

LP Solver output
(0.0, {'flux("AK")': 0.0378, 'flux("CITS")': 0.0, 'flux("GROWTH")': 0.01, 'flux("G6PDH")': 0.02292, 'flux("GLNS_rev")': 0.0, 'flux("PDH")': 0.0186, 'flux("ALATA")': 0.0, 'flux("PPRIBP")': 0.0378, 'flux("CK")': 0.25041, 'flux("AKGDH")': 0.0, 'flux("RESP")': 0.0279, 'flux("GLNT_rev")': 0.0, 'flux("LDH_rev")': 0.0, 'flux("EP")': 0.0, 'flux("TK")': 0.0, 'flux("HK")': 0.02321, 'flux("GLDH")': 0.0, 'flux("PFK")': 0.0, 'flux("LEAK")': 0.0, 'flux("NADPHOX")': 0.04584, 'flux("CS")': 0.0186, 'flux("SDH")': 0.0, 'flux("PGK")': 0.0, 'flux("GLNS")': 0.0, 'flux("ATPASE")': 0.13107, 'flux("CK_rev")': 0.0, 'flux("AK_rev")': 0.0, 'flux("PGI")': 0.0, 'flux("PK")': 0.0, 'flux("GLNT")': 0.076, 'flux("GLUT")': 0.07527, 'flux("LDH")': 0.0384, 'flux("ME")': 0.057, 'flux("MDH")': 0.0186, 'flux("SCOAS")': 0.0})
Answer: 19
support("HK") support("LDH") support("G6PDH") support("PDH") support("CS") support("MDH") support("ME") support("GLNT") support("GLUT") support("RESP") support("ATPASE") support("AK") support("CK") support("PPRIBP") support("NADPHOX") support("GROWTH")

LP solver calls: 191   Time cplex :  0.04345583915710449


temps d'execution :  0.10215330123901367
temps d'execution :  0.10215377807617188
temps d'execution CLPEX  0.10480809211730957

LP Solver output
(0.0, {'flux("AK")': 0.5178082192, 'flux("CITS")': 0.0, 'flux("GROWTH")': 0.1369863014, 'flux("G6PDH")': 0.3139726027, 'flux("GLNS_rev")': 1.0310958904, 'flux("PDH")': 0.2547945205, 'flux("ALATA")': 0.0, 'flux("PPRIBP")': 0.5178082192, 'flux("CK")': 2.3991780822, 'flux("AKGDH")': 0.0, 'flux("RESP")': 0.0, 'flux("GLNT_rev")': 0.0, 'flux("LDH_rev")': 0.0, 'flux("EP")': 0.0, 'flux("TK")': 0.0, 'flux("HK")': 0.3179452055, 'flux("GLDH")': 0.0, 'flux("PFK")': 0.0, 'flux("LEAK")': 0.3821917808, 'flux("NADPHOX")': 0.6279452055, 'flux("CS")': 0.2547945205, 'flux("SDH")': 0.0, 'flux("PGK")': 0.0, 'flux("GLNS")': 0.0, 'flux("ATPASE")': 0.0, 'flux("CK_rev")': 0.0, 'flux("AK_rev")': 0.0, 'flux("PGI")': 0.0, 'flux("PK")': 0.0, 'flux("GLNT")': 0.01, 'flux("GLUT")': 0.0, 'flux("LDH")': 0.5260273973, 'flux("ME")': 0.7808219178, 'flux("MDH")': 0.2547945205, 'flux("SCOAS")': 0.0})
Answer: 20
support("HK") support("LDH") support("G6PDH") support("PDH") support("CS") support("MDH") support("ME") support("GLNT") support("GLNS_rev") support("LEAK") support("AK") support("CK") support("PPRIBP") support("NADPHOX") support("GROWTH")

LP solver calls: 194   Time cplex :  0.04448509216308594


temps d'execution :  0.10579109191894531
temps d'execution CLPEX  0.10886621475219727

LP Solver output
(0.0, {'flux("AK")': 0.0378, 'flux("CITS")': 0.0, 'flux("GROWTH")': 0.01, 'flux("G6PDH")': 0.02292, 'flux("GLNS_rev")': 0.0, 'flux("PDH")': 0.0186, 'flux("ALATA")': 0.0, 'flux("PPRIBP")': 0.0378, 'flux("CK")': 0.25041, 'flux("AKGDH")': 0.0, 'flux("RESP")': 0.0, 'flux("GLNT_rev")': 0.0, 'flux("LDH_rev")': 0.0, 'flux("EP")': 0.0, 'flux("TK")': 0.0, 'flux("HK")': 0.02321, 'flux("GLDH")': 0.0, 'flux("PFK")': 0.0, 'flux("LEAK")': 0.0279, 'flux("NADPHOX")': 0.04584, 'flux("CS")': 0.0186, 'flux("SDH")': 0.0, 'flux("PGK")': 0.0, 'flux("GLNS")': 0.0, 'flux("ATPASE")': 0.07527, 'flux("CK_rev")': 0.0, 'flux("AK_rev")': 0.0, 'flux("PGI")': 0.0, 'flux("PK")': 0.0, 'flux("GLNT")': 0.076, 'flux("GLUT")': 0.07527, 'flux("LDH")': 0.0384, 'flux("ME")': 0.057, 'flux("MDH")': 0.0186, 'flux("SCOAS")': 0.0})
Answer: 21
support("HK") support("LDH") support("G6PDH") support("PDH") support("CS") support("MDH") support("ME") support("GLNT") support("GLUT") support("LEAK") support("ATPASE") support("AK") support("CK") support("PPRIBP") support("NADPHOX") support("GROWTH")

LP solver calls: 196   Time cplex :  0.04503679275512695


temps d'execution :  0.10987019538879395
temps d'execution :  0.10987114906311035
temps d'execution :  0.10987138748168945
temps d'execution CLPEX  0.11273431777954102

LP Solver output
(0.0, {'flux("AK")': 0.0378, 'flux("CITS")': 0.0, 'flux("GROWTH")': 0.01, 'flux("G6PDH")': 0.02292, 'flux("GLNS_rev")': 0.0, 'flux("PDH")': 0.0186, 'flux("ALATA")': 0.07527, 'flux("PPRIBP")': 0.0378, 'flux("CK")': 0.25041, 'flux("AKGDH")': 0.07527, 'flux("RESP")': 0.0, 'flux("GLNT_rev")': 0.0, 'flux("LDH_rev")': 0.0, 'flux("EP")': 0.0, 'flux("TK")': 0.0, 'flux("HK")': 0.02321, 'flux("GLDH")': 0.0, 'flux("PFK")': 0.0, 'flux("LEAK")': 0.1280091, 'flux("NADPHOX")': 0.04584, 'flux("CS")': 0.0186, 'flux("SDH")': 0.07527, 'flux("PGK")': 0.0, 'flux("GLNS")': 0.0, 'flux("ATPASE")': 0.07527, 'flux("CK_rev")': 0.0, 'flux("AK_rev")': 0.0, 'flux("PGI")': 0.0, 'flux("PK")': 0.0, 'flux("GLNT")': 0.076, 'flux("GLUT")': 0.0, 'flux("LDH")': 0.0384, 'flux("ME")': 0.13227, 'flux("MDH")': 0.0186, 'flux("SCOAS")': 0.07527})
Answer: 22
support("HK") support("LDH") support("G6PDH") support("PDH") support("CS") support("AKGDH") support("SCOAS") support("SDH") support("MDH") support("ME") support("GLNT") support("ALATA") support("LEAK") support("ATPASE") support("AK") support("CK") support("PPRIBP") support("NADPHOX") support("GROWTH")

LP solver calls: 200   Time cplex :  0.046683311462402344


temps d'execution CLPEX  0.11671829223632812

LP Solver output
(0.0, {'flux("AK")': 0.0378, 'flux("CITS")': 0.0, 'flux("GROWTH")': 0.01, 'flux("G6PDH")': 0.02292, 'flux("GLNS_rev")': 0.0, 'flux("PDH")': 0.0186, 'flux("ALATA")': 0.0, 'flux("PPRIBP")': 0.0378, 'flux("CK")': 0.25041, 'flux("AKGDH")': 0.07527, 'flux("RESP")': 0.0, 'flux("GLNT_rev")': 0.0, 'flux("LDH_rev")': 0.0, 'flux("EP")': 0.0, 'flux("TK")': 0.0, 'flux("HK")': 0.02321, 'flux("GLDH")': 0.07527, 'flux("PFK")': 0.0, 'flux("LEAK")': 0.1280091, 'flux("NADPHOX")': 0.04584, 'flux("CS")': 0.0186, 'flux("SDH")': 0.07527, 'flux("PGK")': 0.0, 'flux("GLNS")': 0.0, 'flux("ATPASE")': 0.07527, 'flux("CK_rev")': 0.0, 'flux("AK_rev")': 0.0, 'flux("PGI")': 0.0, 'flux("PK")': 0.0, 'flux("GLNT")': 0.076, 'flux("GLUT")': 0.0, 'flux("LDH")': 0.11367, 'flux("ME")': 0.13227, 'flux("MDH")': 0.0186, 'flux("SCOAS")': 0.07527})
Answer: 23
support("HK") support("LDH") support("G6PDH") support("PDH") support("CS") support("AKGDH") support("SCOAS") support("SDH") support("MDH") support("ME") support("GLNT") support("GLDH") support("LEAK") support("ATPASE") support("AK") support("CK") support("PPRIBP") support("NADPHOX") support("GROWTH")

LP solver calls: 201   Time cplex :  0.04703521728515625


temps d'execution :  0.11776375770568848
temps d'execution :  0.11776423454284668
temps d'execution CLPEX  0.12059593200683594

LP Solver output
(0.0, {'flux("AK")': 0.0378, 'flux("CITS")': 0.0, 'flux("GROWTH")': 0.01, 'flux("G6PDH")': 0.02292, 'flux("GLNS_rev")': 0.0, 'flux("PDH")': 0.0186, 'flux("ALATA")': 0.07527, 'flux("PPRIBP")': 0.0378, 'flux("CK")': 0.25041, 'flux("AKGDH")': 0.07527, 'flux("RESP")': 0.1280091, 'flux("GLNT_rev")': 0.0, 'flux("LDH_rev")': 0.0, 'flux("EP")': 0.0, 'flux("TK")': 0.0, 'flux("HK")': 0.02321, 'flux("GLDH")': 0.0, 'flux("PFK")': 0.0, 'flux("LEAK")': 0.0, 'flux("NADPHOX")': 0.04584, 'flux("CS")': 0.0186, 'flux("SDH")': 0.07527, 'flux("PGK")': 0.0, 'flux("GLNS")': 0.0, 'flux("ATPASE")': 0.3312882, 'flux("CK_rev")': 0.0, 'flux("AK_rev")': 0.0, 'flux("PGI")': 0.0, 'flux("PK")': 0.0, 'flux("GLNT")': 0.076, 'flux("GLUT")': 0.0, 'flux("LDH")': 0.0384, 'flux("ME")': 0.13227, 'flux("MDH")': 0.0186, 'flux("SCOAS")': 0.07527})
Answer: 24
support("HK") support("LDH") support("G6PDH") support("PDH") support("CS") support("AKGDH") support("SCOAS") support("SDH") support("MDH") support("ME") support("GLNT") support("ALATA") support("RESP") support("ATPASE") support("AK") support("CK") support("PPRIBP") support("NADPHOX") support("GROWTH")

LP solver calls: 204   Time cplex :  0.048165082931518555


temps d'execution CLPEX  0.12527966499328613

LP Solver output
(0.0, {'flux("AK")': 0.0378, 'flux("CITS")': 0.0, 'flux("GROWTH")': 0.01, 'flux("G6PDH")': 0.02292, 'flux("GLNS_rev")': 0.0, 'flux("PDH")': 0.0186, 'flux("ALATA")': 0.0, 'flux("PPRIBP")': 0.0378, 'flux("CK")': 0.25041, 'flux("AKGDH")': 0.07527, 'flux("RESP")': 0.1280091, 'flux("GLNT_rev")': 0.0, 'flux("LDH_rev")': 0.0, 'flux("EP")': 0.0, 'flux("TK")': 0.0, 'flux("HK")': 0.02321, 'flux("GLDH")': 0.07527, 'flux("PFK")': 0.0, 'flux("LEAK")': 0.0, 'flux("NADPHOX")': 0.04584, 'flux("CS")': 0.0186, 'flux("SDH")': 0.07527, 'flux("PGK")': 0.0, 'flux("GLNS")': 0.0, 'flux("ATPASE")': 0.3312882, 'flux("CK_rev")': 0.0, 'flux("AK_rev")': 0.0, 'flux("PGI")': 0.0, 'flux("PK")': 0.0, 'flux("GLNT")': 0.076, 'flux("GLUT")': 0.0, 'flux("LDH")': 0.11367, 'flux("ME")': 0.13227, 'flux("MDH")': 0.0186, 'flux("SCOAS")': 0.07527})
Answer: 25
support("HK") support("LDH") support("G6PDH") support("PDH") support("CS") support("AKGDH") support("SCOAS") support("SDH") support("MDH") support("ME") support("GLNT") support("GLDH") support("RESP") support("ATPASE") support("AK") support("CK") support("PPRIBP") support("NADPHOX") support("GROWTH")
SATISFIABLE

Models       : 25
Calls        : 1
Time         : 1.855s (Solving: 1.01s 1st Model: 0.37s Unsat: 0.00s)
CPU Time     : 4.124s

Choices      : 610      (Domain: 610)
Conflicts    : 143      (Analyzed: 142)
Restarts     : 2        (Average: 71.00 Last: 132)
Model-Level  : 6.9     
Problems     : 1        (Average Length: 1.00 Splits: 0)
Lemmas       : 142      (Deleted: 0)
  Binary     : 40       (Ratio:  28.17%)
  Ternary    : 21       (Ratio:  14.79%)
  Conflict   : 142      (Average Length:    4.9 Ratio: 100.00%) 
  Loop       : 0        (Average Length:    0.0 Ratio:   0.00%) 
  Other      : 0        (Average Length:    0.0 Ratio:   0.00%) 
Backjumps    : 142      (Average:  3.35 Max:  21 Sum:    476)
  Executed   : 141      (Average:  3.35 Max:  21 Sum:    475 Ratio:  99.79%)
  Bounded    : 1        (Average:  1.00 Max:   1 Sum:      1 Ratio:   0.21%)

Rules        : 372     
  Heuristic  : 35      
Atoms        : 361     
Bodies       : 42       (Original: 41)
Equivalences : 105      (Atom=Atom: 35 Body=Body: 0 Other: 70)
Tight        : Yes
Variables    : 35       (Eliminated:    0 Frozen:   35)
Constraints  : 6        (Binary:  83.3% Ternary:   0.0% Other:  16.7%)


LP solver calls: 205   Time cplex :  0.0484776496887207


Added nogoods for 6 out of 31 partial solutions checked
Total time used by ThermoDGChecker: 0.12636 s
Total time used by CPLEX: 0.12528 s
